%!PS-Adobe-3.0 EPSF-3.0
%%Creator: cairo 1.14.8 (http://cairographics.org)
%%CreationDate: Thu May 23 12:19:47 2019
%%Pages: 1
%%DocumentData: Clean7Bit
%%LanguageLevel: 2
%%BoundingBox: 114 492 469 608
%%EndComments
%%BeginProlog
save
50 dict begin
/q { gsave } bind def
/Q { grestore } bind def
/cm { 6 array astore concat } bind def
/w { setlinewidth } bind def
/J { setlinecap } bind def
/j { setlinejoin } bind def
/M { setmiterlimit } bind def
/d { setdash } bind def
/m { moveto } bind def
/l { lineto } bind def
/c { curveto } bind def
/h { closepath } bind def
/re { exch dup neg 3 1 roll 5 3 roll moveto 0 rlineto
      0 exch rlineto 0 rlineto closepath } bind def
/S { stroke } bind def
/f { fill } bind def
/f* { eofill } bind def
/n { newpath } bind def
/W { clip } bind def
/W* { eoclip } bind def
/BT { } bind def
/ET { } bind def
/pdfmark where { pop globaldict /?pdfmark /exec load put }
    { globaldict begin /?pdfmark /pop load def /pdfmark
    /cleartomark load def end } ifelse
/BDC { mark 3 1 roll /BDC pdfmark } bind def
/EMC { mark /EMC pdfmark } bind def
/cairo_store_point { /cairo_point_y exch def /cairo_point_x exch def } def
/Tj { show currentpoint cairo_store_point } bind def
/TJ {
  {
    dup
    type /stringtype eq
    { show } { -0.001 mul 0 cairo_font_matrix dtransform rmoveto } ifelse
  } forall
  currentpoint cairo_store_point
} bind def
/cairo_selectfont { cairo_font_matrix aload pop pop pop 0 0 6 array astore
    cairo_font exch selectfont cairo_point_x cairo_point_y moveto } bind def
/Tf { pop /cairo_font exch def /cairo_font_matrix where
      { pop cairo_selectfont } if } bind def
/Td { matrix translate cairo_font_matrix matrix concatmatrix dup
      /cairo_font_matrix exch def dup 4 get exch 5 get cairo_store_point
      /cairo_font where { pop cairo_selectfont } if } bind def
/Tm { 2 copy 8 2 roll 6 array astore /cairo_font_matrix exch def
      cairo_store_point /cairo_font where { pop cairo_selectfont } if } bind def
/g { setgray } bind def
/rg { setrgbcolor } bind def
/d1 { setcachedevice } bind def
%%EndProlog
%%BeginSetup
%%EndSetup
%%Page: 1 1
%%BeginPageSetup
%%PageBoundingBox: 114 492 469 608
%%EndPageSetup
q 114 492 355 116 rectclip q
0 g
0.283465 w
0 J
0 j
[] 0.0 d
4 M q 1 0 0 -1 0 841.889771 cm
468.133 234.426 m 114.496 234.426 l 114.496 347.926 l 160.977 347.926 l
 177.609 311.074 l 412.887 311.074 l 430.266 347.926 l 468.133 347.926 l
 h
468.133 234.426 m S Q
q -1 0 0 1 0 841.889771 cm
-121.484 -247.18 m -121.484 -244.832 -123.387 -242.93 -125.738 -242.93 
c -128.086 -242.93 -129.988 -244.832 -129.988 -247.18 c -129.988 -249.527
 -128.086 -251.434 -125.738 -251.434 c -123.387 -251.434 -121.484 -249.527
 -121.484 -247.18 c h
-121.484 -247.18 m S Q
q -1 0 0 1 0 841.889771 cm
-452.965 -247.191 m -452.965 -244.844 -454.867 -242.941 -457.219 -242.941
 c -459.566 -242.941 -461.469 -244.844 -461.469 -247.191 c -461.469 -249.539
 -459.566 -251.445 -457.219 -251.445 c -454.867 -251.445 -452.965 -249.539
 -452.965 -247.191 c h
-452.965 -247.191 m S Q
Q Q
showpage
%%Trailer
end restore
%%EOF
