EESchema Schematic File Version 4
LIBS:SplitFlap_PCB-cache
EELAYER 26 0
EELAYER END
$Descr A4 11693 8268
encoding utf-8
Sheet 1 1
Title ""
Date ""
Rev ""
Comp ""
Comment1 ""
Comment2 ""
Comment3 ""
Comment4 ""
$EndDescr
$Comp
L SplitFlap_PCB-rescue:Arduino_Nano_v3.x-3615_KicadLibrary A1
U 1 1 5C97EE82
P 5800 4700
F 0 "A1" H 5600 5725 50  0000 R CNN
F 1 "Arduino_Nano_v3.x" H 5600 5650 50  0000 R CNN
F 2 "Module:Arduino_Nano" H 5950 3750 50  0001 L CNN
F 3 "" H 5800 3700 50  0001 C CNN
	1    5800 4700
	1    0    0    -1  
$EndComp
$Comp
L Interface_UART:MAX485E U1
U 1 1 5C97EEEB
P 3800 4300
F 0 "U1" H 3560 4750 50  0000 C CNN
F 1 "MAX485E" H 3830 4750 50  0000 L CNN
F 2 "Package_DIP:DIP-8_W7.62mm_Socket" H 3800 3600 50  0001 C CNN
F 3 "" H 3800 4350 50  0001 C CNN
	1    3800 4300
	-1   0    0    1   
$EndComp
$Comp
L Transistor_FET:IRF3205 Q1
U 1 1 5C97F0B0
P 3750 6450
F 0 "Q1" H 4000 6525 50  0000 L CNN
F 1 "IRF3205" H 4000 6450 50  0000 L CNN
F 2 "Package_TO_SOT_THT:TO-220-3_Vertical" H 4000 6375 50  0001 L CIN
F 3 "" H 3750 6450 50  0001 L CNN
	1    3750 6450
	-1   0    0    1   
$EndComp
$Comp
L pspice:DIODE D1
U 1 1 5C97F0FF
P 8300 3200
F 0 "D1" H 8300 3350 50  0000 C CNN
F 1 "DIODE" H 8300 3025 50  0000 C CNN
F 2 "Diode_THT:D_A-405_P10.16mm_Horizontal" H 8300 3200 50  0001 C CNN
F 3 "" H 8300 3200 50  0001 C CNN
	1    8300 3200
	1    0    0    -1  
$EndComp
$Comp
L SplitFlap_PCB-rescue:Conn_01x04-3615_KicadLibrary J1
U 1 1 5C97F11E
P 2150 4300
F 0 "J1" H 2150 4500 50  0000 C CNN
F 1 "Conn_01x04" H 2150 4000 50  0000 C CNN
F 2 "Connector:FanPinHeader_1x04_P2.54mm_Vertical" H 2150 4300 50  0001 C CNN
F 3 "" H 2150 4300 50  0001 C CNN
	1    2150 4300
	-1   0    0    1   
$EndComp
$Comp
L SplitFlap_PCB-rescue:Conn_01x02-3615_KicadLibrary J2
U 1 1 5C97F15D
P 8200 2550
F 0 "J2" H 8200 2650 50  0000 C CNN
F 1 "Conn_01x02" H 8200 2350 50  0000 C CNN
F 2 "Connector_PinHeader_2.54mm:PinHeader_1x02_P2.54mm_Vertical" H 8200 2550 50  0001 C CNN
F 3 "" H 8200 2550 50  0001 C CNN
	1    8200 2550
	0    -1   -1   0   
$EndComp
$Comp
L power:+5V #PWR01
U 1 1 5C9801D4
P 6000 3700
F 0 "#PWR01" H 6000 3550 50  0001 C CNN
F 1 "+5V" H 6000 3840 50  0000 C CNN
F 2 "" H 6000 3700 50  0000 C CNN
F 3 "" H 6000 3700 50  0000 C CNN
	1    6000 3700
	1    0    0    -1  
$EndComp
$Comp
L power:GND #PWR02
U 1 1 5C9801F8
P 5900 5700
F 0 "#PWR02" H 5900 5450 50  0001 C CNN
F 1 "GND" H 5900 5550 50  0000 C CNN
F 2 "" H 5900 5700 50  0000 C CNN
F 3 "" H 5900 5700 50  0000 C CNN
	1    5900 5700
	1    0    0    -1  
$EndComp
$Comp
L power:+5V #PWR03
U 1 1 5C980319
P 3800 4800
F 0 "#PWR03" H 3800 4650 50  0001 C CNN
F 1 "+5V" H 3800 4940 50  0000 C CNN
F 2 "" H 3800 4800 50  0000 C CNN
F 3 "" H 3800 4800 50  0000 C CNN
	1    3800 4800
	-1   0    0    1   
$EndComp
Wire Wire Line
	5300 4100 4550 4100
Wire Wire Line
	4550 4100 4550 4400
Wire Wire Line
	4550 4400 4200 4400
Wire Wire Line
	5300 4200 4400 4200
Wire Wire Line
	4400 4200 4400 4100
Wire Wire Line
	4400 4100 4200 4100
Wire Wire Line
	4200 4200 4350 4200
Wire Wire Line
	4350 4200 4350 4300
Wire Wire Line
	4200 4300 4350 4300
Connection ~ 4350 4300
$Comp
L power:GND #PWR04
U 1 1 5C980C7C
P 3800 3700
F 0 "#PWR04" H 3800 3450 50  0001 C CNN
F 1 "GND" H 3800 3550 50  0000 C CNN
F 2 "" H 3800 3700 50  0000 C CNN
F 3 "" H 3800 3700 50  0000 C CNN
	1    3800 3700
	-1   0    0    1   
$EndComp
Wire Wire Line
	2350 4400 3400 4400
Wire Wire Line
	2350 4300 3400 4300
Wire Wire Line
	3400 4300 3400 4100
$Comp
L power:+12V #PWR05
U 1 1 5C981029
P 2350 4100
F 0 "#PWR05" H 2350 3950 50  0001 C CNN
F 1 "+12V" H 2350 4240 50  0000 C CNN
F 2 "" H 2350 4100 50  0000 C CNN
F 3 "" H 2350 4100 50  0000 C CNN
	1    2350 4100
	1    0    0    -1  
$EndComp
$Comp
L power:GND #PWR06
U 1 1 5C981053
P 2350 4200
F 0 "#PWR06" H 2350 3950 50  0001 C CNN
F 1 "GND" H 2350 4050 50  0000 C CNN
F 2 "" H 2350 4200 50  0000 C CNN
F 3 "" H 2350 4200 50  0000 C CNN
	1    2350 4200
	0    -1   -1   0   
$EndComp
$Comp
L SplitFlap_PCB-rescue:BSS138 Q2
U 1 1 5C981172
P 8250 4200
F 0 "Q2" H 8450 4275 50  0000 L CNN
F 1 "BSS138" H 8450 4200 50  0000 L CNN
F 2 "Package_TO_SOT_THT:TO-220-3_Vertical" H 8450 4125 50  0001 L CIN
F 3 "" H 8250 4200 50  0000 L CNN
	1    8250 4200
	1    0    0    -1  
$EndComp
$Comp
L power:+12V #PWR07
U 1 1 5C981429
P 8100 3650
F 0 "#PWR07" H 8100 3500 50  0001 C CNN
F 1 "+12V" H 8100 3790 50  0000 C CNN
F 2 "" H 8100 3650 50  0000 C CNN
F 3 "" H 8100 3650 50  0000 C CNN
	1    8100 3650
	-1   0    0    1   
$EndComp
Wire Wire Line
	8100 2900 8200 2900
Wire Wire Line
	8200 2900 8200 2750
Wire Wire Line
	8300 2750 8300 2900
Wire Wire Line
	8300 2900 8500 2900
Wire Wire Line
	8500 2900 8500 3200
Wire Wire Line
	8500 4000 8350 4000
Connection ~ 8500 3200
Wire Wire Line
	8050 4250 7450 4250
Wire Wire Line
	7450 4250 7450 6250
Wire Wire Line
	7450 6250 4800 6250
$Comp
L Device:R_Small R1
U 1 1 5C981741
P 4800 6350
F 0 "R1" H 4830 6370 50  0000 L CNN
F 1 "10K" H 4830 6310 50  0000 L CNN
F 2 "Resistor_THT:R_Axial_DIN0207_L6.3mm_D2.5mm_P10.16mm_Horizontal" H 4800 6350 50  0001 C CNN
F 3 "" H 4800 6350 50  0000 C CNN
	1    4800 6350
	1    0    0    -1  
$EndComp
$Comp
L power:GND #PWR08
U 1 1 5C9817B2
P 4800 6450
F 0 "#PWR08" H 4800 6200 50  0001 C CNN
F 1 "GND" H 4800 6300 50  0000 C CNN
F 2 "" H 4800 6450 50  0000 C CNN
F 3 "" H 4800 6450 50  0000 C CNN
	1    4800 6450
	1    0    0    -1  
$EndComp
$Comp
L power:GND #PWR09
U 1 1 5C98180E
P 8350 4400
F 0 "#PWR09" H 8350 4150 50  0001 C CNN
F 1 "GND" H 8350 4250 50  0000 C CNN
F 2 "" H 8350 4400 50  0000 C CNN
F 3 "" H 8350 4400 50  0000 C CNN
	1    8350 4400
	1    0    0    -1  
$EndComp
$Comp
L power:+12V #PWR010
U 1 1 5C981834
P 5700 3700
F 0 "#PWR010" H 5700 3550 50  0001 C CNN
F 1 "+12V" H 5700 3840 50  0000 C CNN
F 2 "" H 5700 3700 50  0000 C CNN
F 3 "" H 5700 3700 50  0000 C CNN
	1    5700 3700
	1    0    0    -1  
$EndComp
$Comp
L power:+5V #PWR011
U 1 1 5C981B71
P 3650 6250
F 0 "#PWR011" H 3650 6100 50  0001 C CNN
F 1 "+5V" H 3650 6390 50  0000 C CNN
F 2 "" H 3650 6250 50  0000 C CNN
F 3 "" H 3650 6250 50  0000 C CNN
	1    3650 6250
	1    0    0    -1  
$EndComp
$Comp
L power:GND #PWR012
U 1 1 5C981B97
P 3650 6650
F 0 "#PWR012" H 3650 6400 50  0001 C CNN
F 1 "GND" H 3650 6500 50  0000 C CNN
F 2 "" H 3650 6650 50  0000 C CNN
F 3 "" H 3650 6650 50  0000 C CNN
	1    3650 6650
	1    0    0    -1  
$EndComp
$Comp
L Switch:SW_DIP_x07 SW1
U 1 1 5C981BF0
P 6850 5550
F 0 "SW1" H 6850 6100 50  0000 C CNN
F 1 "SW_DIP_x07" H 6850 5200 50  0000 C CNN
F 2 "Button_Switch_THT:SW_DIP_SPSTx07_Slide_9.78x19.96mm_W7.62mm_P2.54mm" H 6850 5550 50  0001 C CNN
F 3 "" H 6850 5550 50  0001 C CNN
	1    6850 5550
	1    0    0    -1  
$EndComp
$Comp
L power:GND #PWR013
U 1 1 5C981C5F
P 6550 6050
F 0 "#PWR013" H 6550 5800 50  0001 C CNN
F 1 "GND" H 6550 5900 50  0000 C CNN
F 2 "" H 6550 6050 50  0000 C CNN
F 3 "" H 6550 6050 50  0000 C CNN
	1    6550 6050
	1    0    0    -1  
$EndComp
Wire Wire Line
	6550 5150 6550 5250
Connection ~ 6550 5750
Connection ~ 6550 5650
Connection ~ 6550 5550
Connection ~ 6550 5450
Connection ~ 6550 5250
Connection ~ 6550 5350
Wire Wire Line
	5800 5700 5900 5700
NoConn ~ 5300 4600
NoConn ~ 5300 4700
NoConn ~ 6300 4100
NoConn ~ 6300 4200
Wire Wire Line
	4350 4300 5300 4300
Wire Wire Line
	8500 3200 8500 4000
Wire Wire Line
	6550 5750 6550 6050
Wire Wire Line
	6550 5650 6550 5750
Wire Wire Line
	6550 5550 6550 5650
Wire Wire Line
	6550 5450 6550 5550
Wire Wire Line
	6550 5250 6550 5350
Wire Wire Line
	6550 5350 6550 5450
NoConn ~ 5300 4800
NoConn ~ 5300 4900
NoConn ~ 5300 5000
NoConn ~ 5300 5200
NoConn ~ 5300 5400
NoConn ~ 5300 5300
Wire Wire Line
	7150 5750 7400 5750
Wire Wire Line
	7400 5750 7400 4900
Wire Wire Line
	7150 5650 7350 5650
Wire Wire Line
	7350 5650 7350 4850
Wire Wire Line
	7350 4850 6500 4850
Wire Wire Line
	7150 5550 7300 5550
Wire Wire Line
	7300 5550 7300 4800
Wire Wire Line
	7300 4800 6400 4800
Wire Wire Line
	7150 5350 7600 5350
Wire Wire Line
	7150 5250 7550 5250
Wire Wire Line
	7150 5450 7250 5450
Wire Wire Line
	7250 5450 7250 4750
NoConn ~ 5300 4400
Wire Wire Line
	5300 5100 4800 5100
Wire Wire Line
	4800 5100 4800 6250
Connection ~ 4800 6250
Wire Wire Line
	8100 2900 8100 3200
Wire Wire Line
	8100 3200 8100 3650
Connection ~ 8100 3200
NoConn ~ 6300 4500
NoConn ~ 5300 4500
Wire Wire Line
	3950 6450 4500 6450
Wire Wire Line
	4500 6450 4500 6700
Wire Wire Line
	6300 5400 6300 6700
Wire Wire Line
	6300 6700 4500 6700
Wire Wire Line
	6450 4900 6450 5300
Wire Wire Line
	6450 5300 6300 5300
Wire Wire Line
	6500 4850 6500 5200
Wire Wire Line
	6300 5200 6500 5200
Wire Wire Line
	6400 4800 6400 5100
Wire Wire Line
	6400 5100 6300 5100
Wire Wire Line
	7150 5150 7150 5000
Wire Wire Line
	7150 5000 6300 5000
Wire Wire Line
	7400 4900 6450 4900
Wire Wire Line
	7550 5250 7550 4700
Wire Wire Line
	7550 4700 6450 4700
Wire Wire Line
	6450 4700 6450 4850
Wire Wire Line
	6450 4850 6350 4850
Wire Wire Line
	6350 4850 6350 4900
Wire Wire Line
	6350 4900 6300 4900
Wire Wire Line
	7600 5350 7600 4650
Wire Wire Line
	7600 4650 6350 4650
Wire Wire Line
	6350 4650 6350 4800
Wire Wire Line
	6350 4800 6300 4800
Wire Wire Line
	6300 4750 6300 4700
Wire Wire Line
	6300 4750 7250 4750
$Comp
L Mechanical:MountingHole H1
U 1 1 5CFD7A9D
P 2350 2200
F 0 "H1" H 2450 2246 50  0000 L CNN
F 1 "MountingHole" H 2450 2155 50  0000 L CNN
F 2 "MountingHole:MountingHole_3.2mm_M3" H 2350 2200 50  0001 C CNN
F 3 "~" H 2350 2200 50  0001 C CNN
	1    2350 2200
	1    0    0    -1  
$EndComp
$Comp
L Mechanical:MountingHole H2
U 1 1 5CFD7B59
P 3450 2200
F 0 "H2" H 3550 2246 50  0000 L CNN
F 1 "MountingHole" H 3550 2155 50  0000 L CNN
F 2 "MountingHole:MountingHole_3.2mm_M3" H 3450 2200 50  0001 C CNN
F 3 "~" H 3450 2200 50  0001 C CNN
	1    3450 2200
	1    0    0    -1  
$EndComp
$EndSCHEMATC
