<?xml version="1.0" encoding="UTF-8" standalone="no"?>
<!-- Created with Inkscape (http://www.inkscape.org/) -->

<svg
   xmlns:dc="http://purl.org/dc/elements/1.1/"
   xmlns:cc="http://creativecommons.org/ns#"
   xmlns:rdf="http://www.w3.org/1999/02/22-rdf-syntax-ns#"
   xmlns:svg="http://www.w3.org/2000/svg"
   xmlns="http://www.w3.org/2000/svg"
   xmlns:xlink="http://www.w3.org/1999/xlink"
   xmlns:sodipodi="http://sodipodi.sourceforge.net/DTD/sodipodi-0.dtd"
   xmlns:inkscape="http://www.inkscape.org/namespaces/inkscape"
   width="400mm"
   height="300mm"
   viewBox="0 0 400 300"
   version="1.1"
   id="svg8"
   inkscape:version="0.92.1 r15371"
   sodipodi:docname="Crab-proto1.svg">
  <defs
     id="defs2">
    <marker
       style="overflow:visible"
       refY="0.0"
       refX="0.0"
       orient="auto"
       id="DistanceX">
      <path
         id="path4556"
         style="stroke:#000000; stroke-width:0.5"
         d="M 3,-3 L -3,3 M 0,-5 L  0,5" />
    </marker>
    <pattern
       y="0"
       x="0"
       width="8"
       patternUnits="userSpaceOnUse"
       id="Hatch"
       height="8">
      <path
         id="path4559"
         stroke-width="0.25"
         stroke="#000000"
         linecap="square"
         d="M8 4 l-4,4" />
      <path
         id="path4561"
         stroke-width="0.25"
         stroke="#000000"
         linecap="square"
         d="M6 2 l-4,4" />
      <path
         id="path4563"
         stroke-width="0.25"
         stroke="#000000"
         linecap="square"
         d="M4 0 l-4,4" />
    </pattern>
    <symbol
       id="SHAPE2DVIEW001">
      <path
         id="path4566"
         style="stroke:#000000;fill:none"
         d="M 956.220472,1122.519685 A 200.314961,200.314961 -0.000000 1 0 555.590551,1122.519685 200.314961,200.314961 -0.000000 1 0 956.220472,1122.519685 z" />
      <path
         id="path4568"
         style="stroke:#000000;fill:none"
         d="M 585.334106,1088.525469 A 7.632517,7.632517 -0.000000 1 0 570.069071,1088.525469 7.632517,7.632517 -0.000000 1 0 585.334106,1088.525469 z" />
      <path
         id="path4570"
         style="stroke:#000000;fill:none"
         d="M 590.999902,1066.458649 A 7.632517,7.632517 -0.000000 1 0 575.734868,1066.458649 7.632517,7.632517 -0.000000 1 0 590.999902,1066.458649 z" />
      <path
         id="path4572"
         style="stroke:#000000;fill:none"
         d="M 599.386727,1045.275946 A 7.632517,7.632517 -0.000000 1 0 584.121693,1045.275946 7.632517,7.632517 -0.000000 1 0 599.386727,1045.275946 z" />
      <path
         id="path4574"
         style="stroke:#000000;fill:none"
         d="M 623.753579,1006.879931 A 7.632517,7.632517 -0.000000 1 0 608.488545,1006.879931 7.632517,7.632517 -0.000000 1 0 623.753579,1006.879931 z" />
      <path
         id="path4576"
         style="stroke:#000000;fill:none"
         d="M 610.362317,1025.311422 A 7.632517,7.632517 -0.000000 1 0 595.097283,1025.311422 7.632517,7.632517 -0.000000 1 0 610.362317,1025.311422 z" />
      <path
         id="path4578"
         style="stroke:#000000;fill:none"
         d="M 639.349326,990.272148 A 7.632517,7.632517 -0.000000 1 0 624.084291,990.272148 7.632517,7.632517 -0.000000 1 0 639.349326,990.272148 z" />
      <path
         id="path4580"
         style="stroke:#000000;fill:none"
         d="M 656.903602,975.749988 A 7.632517,7.632517 -0.000000 1 0 641.638568,975.749988 7.632517,7.632517 -0.000000 1 0 656.903602,975.749988 z" />
      <path
         id="path4582"
         style="stroke:#000000;fill:none"
         d="M 808.654682,946.801921 A 7.632517,7.632517 -0.000000 1 0 793.389648,946.801921 7.632517,7.632517 -0.000000 1 0 808.654682,946.801921 z" />
      <path
         id="path4584"
         style="stroke:#000000;fill:none"
         d="M 786.275649,942.532892 A 7.632517,7.632517 -0.000000 1 0 771.010614,942.532892 7.632517,7.632517 -0.000000 1 0 786.275649,942.532892 z" />
      <path
         id="path4586"
         style="stroke:#000000;fill:none"
         d="M 740.800409,942.532892 A 7.632517,7.632517 -0.000000 1 0 725.535375,942.532892 7.632517,7.632517 -0.000000 1 0 740.800409,942.532892 z" />
      <path
         id="path4588"
         style="stroke:#000000;fill:none"
         d="M 763.538029,941.102362 A 7.632517,7.632517 -0.000000 1 0 748.272995,941.102362 7.632517,7.632517 -0.000000 1 0 763.538029,941.102362 z" />
      <path
         id="path4590"
         style="stroke:#000000;fill:none"
         d="M 676.139567,963.542473 A 7.632517,7.632517 -0.000000 1 0 660.874533,963.542473 7.632517,7.632517 -0.000000 1 0 676.139567,963.542473 z" />
      <path
         id="path4592"
         style="stroke:#000000;fill:none"
         d="M 718.421375,946.801921 A 7.632517,7.632517 -0.000000 1 0 703.156341,946.801921 7.632517,7.632517 -0.000000 1 0 718.421375,946.801921 z" />
      <path
         id="path4594"
         style="stroke:#000000;fill:none"
         d="M 696.753858,953.842124 A 7.632517,7.632517 -0.000000 1 0 681.488824,953.842124 7.632517,7.632517 -0.000000 1 0 696.753858,953.842124 z" />
      <path
         id="path4596"
         style="stroke:#000000;fill:none"
         d="M 733.228346,1054.488189 733.228346,1065.826772" />
      <path
         id="path4598"
         style="stroke:#000000;fill:none"
         d="M 733.228346,1065.826772 778.582677,1065.826772" />
      <path
         id="path4600"
         style="stroke:#000000;fill:none"
         d="M 778.582677,1065.826772 778.582677,1054.488189" />
      <path
         id="path4602"
         style="stroke:#000000;fill:none"
         d="M 778.582677,1054.488189 733.228346,1054.488189" />
      <path
         id="path4604"
         style="stroke:#000000;fill:none"
         d="M 585.334106,1156.513901 A 7.632517,7.632517 -0.000000 1 0 570.069071,1156.513901 7.632517,7.632517 -0.000000 1 0 585.334106,1156.513901 z" />
      <path
         id="path4606"
         style="stroke:#000000;fill:none"
         d="M 582.478692,1133.910973 A 7.632517,7.632517 -0.000000 1 0 567.213658,1133.910973 7.632517,7.632517 -0.000000 1 0 582.478692,1133.910973 z" />
      <path
         id="path4608"
         style="stroke:#000000;fill:none"
         d="M 582.478692,1111.128397 A 7.632517,7.632517 -0.000000 1 0 567.213658,1111.128397 7.632517,7.632517 -0.000000 1 0 582.478692,1111.128397 z" />
      <path
         id="path4610"
         style="stroke:#000000;fill:none"
         d="M 767.244094,1122.519685 A 11.338583,11.338583 -0.000000 1 0 744.566929,1122.519685 11.338583,11.338583 -0.000000 1 0 767.244094,1122.519685 z" />
      <path
         id="path4612"
         style="stroke:#000000;fill:none"
         d="M 699.212598,1145.196850 687.874016,1145.196850" />
      <path
         id="path4614"
         style="stroke:#000000;fill:none"
         d="M 699.212598,1099.842520 699.212598,1145.196850" />
      <path
         id="path4616"
         style="stroke:#000000;fill:none"
         d="M 687.874016,1099.842520 699.212598,1099.842520" />
      <path
         id="path4618"
         style="stroke:#000000;fill:none"
         d="M 687.874016,1145.196850 687.874016,1099.842520" />
      <path
         id="path4620"
         style="stroke:#000000;fill:none"
         d="M 599.386727,1199.763424 A 7.632517,7.632517 -0.000000 1 0 584.121693,1199.763424 7.632517,7.632517 -0.000000 1 0 599.386727,1199.763424 z" />
      <path
         id="path4622"
         style="stroke:#000000;fill:none"
         d="M 590.999902,1178.580721 A 7.632517,7.632517 -0.000000 1 0 575.734868,1178.580721 7.632517,7.632517 -0.000000 1 0 590.999902,1178.580721 z" />
      <path
         id="path4624"
         style="stroke:#000000;fill:none"
         d="M 733.228346,1179.212598 733.228346,1190.551181" />
      <path
         id="path4626"
         style="stroke:#000000;fill:none"
         d="M 733.228346,1190.551181 778.582677,1190.551181" />
      <path
         id="path4628"
         style="stroke:#000000;fill:none"
         d="M 778.582677,1190.551181 778.582677,1179.212598" />
      <path
         id="path4630"
         style="stroke:#000000;fill:none"
         d="M 778.582677,1179.212598 733.228346,1179.212598" />
      <path
         id="path4632"
         style="stroke:#000000;fill:none"
         d="M 610.362317,1219.727948 A 7.632517,7.632517 -0.000000 1 0 595.097283,1219.727948 7.632517,7.632517 -0.000000 1 0 610.362317,1219.727948 z" />
      <path
         id="path4634"
         style="stroke:#000000;fill:none"
         d="M 623.753579,1238.159439 A 7.632517,7.632517 -0.000000 1 0 608.488545,1238.159439 7.632517,7.632517 -0.000000 1 0 623.753579,1238.159439 z" />
      <path
         id="path4636"
         style="stroke:#000000;fill:none"
         d="M 903.322479,1238.159439 A 7.632517,7.632517 -0.000000 1 0 888.057444,1238.159439 7.632517,7.632517 -0.000000 1 0 903.322479,1238.159439 z" />
      <path
         id="path4638"
         style="stroke:#000000;fill:none"
         d="M 927.689330,1199.763424 A 7.632517,7.632517 -0.000000 1 0 912.424296,1199.763424 7.632517,7.632517 -0.000000 1 0 927.689330,1199.763424 z" />
      <path
         id="path4640"
         style="stroke:#000000;fill:none"
         d="M 916.713741,1219.727948 A 7.632517,7.632517 -0.000000 1 0 901.448707,1219.727948 7.632517,7.632517 -0.000000 1 0 916.713741,1219.727948 z" />
      <path
         id="path4642"
         style="stroke:#000000;fill:none"
         d="M 944.597366,1111.128397 A 7.632517,7.632517 -0.000000 1 0 929.332332,1111.128397 7.632517,7.632517 -0.000000 1 0 944.597366,1111.128397 z" />
      <path
         id="path4644"
         style="stroke:#000000;fill:none"
         d="M 870.172456,975.749988 A 7.632517,7.632517 -0.000000 1 0 854.907422,975.749988 7.632517,7.632517 -0.000000 1 0 870.172456,975.749988 z" />
      <path
         id="path4646"
         style="stroke:#000000;fill:none"
         d="M 887.726732,990.272148 A 7.632517,7.632517 -0.000000 1 0 872.461698,990.272148 7.632517,7.632517 -0.000000 1 0 887.726732,990.272148 z" />
      <path
         id="path4648"
         style="stroke:#000000;fill:none"
         d="M 916.713741,1025.311422 A 7.632517,7.632517 -0.000000 1 0 901.448707,1025.311422 7.632517,7.632517 -0.000000 1 0 916.713741,1025.311422 z" />
      <path
         id="path4650"
         style="stroke:#000000;fill:none"
         d="M 903.322479,1006.879931 A 7.632517,7.632517 -0.000000 1 0 888.057444,1006.879931 7.632517,7.632517 -0.000000 1 0 903.322479,1006.879931 z" />
      <path
         id="path4652"
         style="stroke:#000000;fill:none"
         d="M 927.689330,1045.275946 A 7.632517,7.632517 -0.000000 1 0 912.424296,1045.275946 7.632517,7.632517 -0.000000 1 0 927.689330,1045.275946 z" />
      <path
         id="path4654"
         style="stroke:#000000;fill:none"
         d="M 941.741952,1088.525469 A 7.632517,7.632517 -0.000000 1 0 926.476918,1088.525469 7.632517,7.632517 -0.000000 1 0 941.741952,1088.525469 z" />
      <path
         id="path4656"
         style="stroke:#000000;fill:none"
         d="M 936.076156,1066.458649 A 7.632517,7.632517 -0.000000 1 0 920.811122,1066.458649 7.632517,7.632517 -0.000000 1 0 936.076156,1066.458649 z" />
      <path
         id="path4658"
         style="stroke:#000000;fill:none"
         d="M 823.937008,1099.842520 823.937008,1145.196850" />
      <path
         id="path4660"
         style="stroke:#000000;fill:none"
         d="M 812.598425,1099.842520 823.937008,1099.842520" />
      <path
         id="path4662"
         style="stroke:#000000;fill:none"
         d="M 812.598425,1145.196850 812.598425,1099.842520" />
      <path
         id="path4664"
         style="stroke:#000000;fill:none"
         d="M 823.937008,1145.196850 812.598425,1145.196850" />
      <path
         id="path4666"
         style="stroke:#000000;fill:none"
         d="M 850.936491,963.542473 A 7.632517,7.632517 -0.000000 1 0 835.671457,963.542473 7.632517,7.632517 -0.000000 1 0 850.936491,963.542473 z" />
      <path
         id="path4668"
         style="stroke:#000000;fill:none"
         d="M 830.322200,953.842124 A 7.632517,7.632517 -0.000000 1 0 815.057166,953.842124 7.632517,7.632517 -0.000000 1 0 830.322200,953.842124 z" />
      <path
         id="path4670"
         style="stroke:#000000;fill:none"
         d="M 830.322200,1291.197246 A 7.632517,7.632517 -0.000000 1 0 815.057166,1291.197246 7.632517,7.632517 -0.000000 1 0 830.322200,1291.197246 z" />
      <path
         id="path4672"
         style="stroke:#000000;fill:none"
         d="M 808.654682,1298.237449 A 7.632517,7.632517 -0.000000 1 0 793.389648,1298.237449 7.632517,7.632517 -0.000000 1 0 808.654682,1298.237449 z" />
      <path
         id="path4674"
         style="stroke:#000000;fill:none"
         d="M 763.538029,1303.937008 A 7.632517,7.632517 -0.000000 1 0 748.272995,1303.937008 7.632517,7.632517 -0.000000 1 0 763.538029,1303.937008 z" />
      <path
         id="path4676"
         style="stroke:#000000;fill:none"
         d="M 786.275649,1302.506478 A 7.632517,7.632517 -0.000000 1 0 771.010614,1302.506478 7.632517,7.632517 -0.000000 1 0 786.275649,1302.506478 z" />
      <path
         id="path4678"
         style="stroke:#000000;fill:none"
         d="M 740.800409,1302.506478 A 7.632517,7.632517 -0.000000 1 0 725.535375,1302.506478 7.632517,7.632517 -0.000000 1 0 740.800409,1302.506478 z" />
      <path
         id="path4680"
         style="stroke:#000000;fill:none"
         d="M 639.349326,1254.767222 A 7.632517,7.632517 -0.000000 1 0 624.084291,1254.767222 7.632517,7.632517 -0.000000 1 0 639.349326,1254.767222 z" />
      <path
         id="path4682"
         style="stroke:#000000;fill:none"
         d="M 656.903602,1269.289382 A 7.632517,7.632517 -0.000000 1 0 641.638568,1269.289382 7.632517,7.632517 -0.000000 1 0 656.903602,1269.289382 z" />
      <path
         id="path4684"
         style="stroke:#000000;fill:none"
         d="M 696.753858,1291.197246 A 7.632517,7.632517 -0.000000 1 0 681.488824,1291.197246 7.632517,7.632517 -0.000000 1 0 696.753858,1291.197246 z" />
      <path
         id="path4686"
         style="stroke:#000000;fill:none"
         d="M 676.139567,1281.496897 A 7.632517,7.632517 -0.000000 1 0 660.874533,1281.496897 7.632517,7.632517 -0.000000 1 0 676.139567,1281.496897 z" />
      <path
         id="path4688"
         style="stroke:#000000;fill:none"
         d="M 718.421375,1298.237449 A 7.632517,7.632517 -0.000000 1 0 703.156341,1298.237449 7.632517,7.632517 -0.000000 1 0 718.421375,1298.237449 z" />
      <path
         id="path4690"
         style="stroke:#000000;fill:none"
         d="M 850.936491,1281.496897 A 7.632517,7.632517 -0.000000 1 0 835.671457,1281.496897 7.632517,7.632517 -0.000000 1 0 850.936491,1281.496897 z" />
      <path
         id="path4692"
         style="stroke:#000000;fill:none"
         d="M 870.172456,1269.289382 A 7.632517,7.632517 -0.000000 1 0 854.907422,1269.289382 7.632517,7.632517 -0.000000 1 0 870.172456,1269.289382 z" />
      <path
         id="path4694"
         style="stroke:#000000;fill:none"
         d="M 887.726732,1254.767222 A 7.632517,7.632517 -0.000000 1 0 872.461698,1254.767222 7.632517,7.632517 -0.000000 1 0 887.726732,1254.767222 z" />
      <path
         id="path4696"
         style="stroke:#000000;fill:none"
         d="M 944.597366,1133.910973 A 7.632517,7.632517 -0.000000 1 0 929.332332,1133.910973 7.632517,7.632517 -0.000000 1 0 944.597366,1133.910973 z" />
      <path
         id="path4698"
         style="stroke:#000000;fill:none"
         d="M 941.741952,1156.513901 A 7.632517,7.632517 -0.000000 1 0 926.476918,1156.513901 7.632517,7.632517 -0.000000 1 0 941.741952,1156.513901 z" />
      <path
         id="path4700"
         style="stroke:#000000;fill:none"
         d="M 936.076156,1178.580721 A 7.632517,7.632517 -0.000000 1 0 920.811122,1178.580721 7.632517,7.632517 -0.000000 1 0 936.076156,1178.580721 z" />
    </symbol>
  </defs>
  <sodipodi:namedview
     id="base"
     pagecolor="#ffffff"
     bordercolor="#666666"
     borderopacity="1.0"
     inkscape:pageopacity="0.0"
     inkscape:pageshadow="2"
     inkscape:zoom="0.49497475"
     inkscape:cx="658.57952"
     inkscape:cy="667.17048"
     inkscape:document-units="mm"
     inkscape:current-layer="layer1"
     showgrid="false"
     inkscape:window-width="1920"
     inkscape:window-height="1129"
     inkscape:window-x="1680"
     inkscape:window-y="34"
     inkscape:window-maximized="1" />
  <metadata
     id="metadata5">
    <rdf:RDF>
      <cc:Work
         rdf:about="">
        <dc:format>image/svg+xml</dc:format>
        <dc:type
           rdf:resource="http://purl.org/dc/dcmitype/StillImage" />
        <dc:title></dc:title>
      </cc:Work>
    </rdf:RDF>
  </metadata>
  <g
     inkscape:label="Calque 1"
     inkscape:groupmode="layer"
     id="layer1"
     transform="translate(0,3)">
    <g
       id="g6061"
       transform="translate(1.0583333,-3.1750001)">
      <g
         transform="matrix(0.26458333,0,0,0.26458333,-140.93536,-236.09564)"
         inkscape:label="0"
         id="g4707">
        <use
           height="100%"
           width="100%"
           y="0"
           x="0"
           xlink:href="#SHAPE2DVIEW001"
           id="use4705" />
      </g>
      <g
         transform="matrix(1,0,0,-1,-147.0191,60.184262)"
         id="Shape2DView002">
        <path
           id="path5140"
           style="fill:none;stroke:#191919;stroke-width:0.34999999;stroke-miterlimit:4;stroke-dasharray:none"
           d="m 200,-70 10.2606,-1.809221 9.02303,-5.209446 6.69713,-7.981333 3.56347,-9.790555 V -105.20945 L 225.98076,-115 l -6.69713,-7.98133 -9.02303,-5.20945 L 200,-130 l -10.2606,1.80922 -9.02303,5.20945 -6.69713,7.98133 -3.56347,9.79055 v 10.418895 L 174.01924,-85 l 6.69713,7.981333 9.02303,5.209446 L 200,-70"
           inkscape:connector-curvature="0" />
        <path
           style="fill:none;fill-rule:evenodd;stroke:#191919;stroke-width:0.34999999;stroke-miterlimit:4;stroke-dasharray:none"
           d="m 215,-106 v 12"
           id="Shape2DView002_nwe0001"
           inkscape:connector-curvature="0" />
        <path
           style="fill:none;fill-rule:evenodd;stroke:#191919;stroke-width:0.34999999;stroke-miterlimit:4;stroke-dasharray:none"
           d="m 218,-106 h -3"
           id="Shape2DView002_nwe0002"
           inkscape:connector-curvature="0" />
        <path
           style="fill:none;fill-rule:evenodd;stroke:#191919;stroke-width:0.34999999;stroke-miterlimit:4;stroke-dasharray:none"
           d="m 218,-94 v -12"
           id="Shape2DView002_nwe0003"
           inkscape:connector-curvature="0" />
        <path
           style="fill:none;fill-rule:evenodd;stroke:#191919;stroke-width:0.34999999;stroke-miterlimit:4;stroke-dasharray:none"
           d="m 215,-94 h 3"
           id="Shape2DView002_nwe0004"
           inkscape:connector-curvature="0" />
        <path
           style="fill:none;fill-rule:evenodd;stroke:#191919;stroke-width:0.34999999;stroke-miterlimit:4;stroke-dasharray:none"
           d="m 206,-118 v 3"
           id="Shape2DView002_nwe0005"
           inkscape:connector-curvature="0" />
        <path
           style="fill:none;fill-rule:evenodd;stroke:#191919;stroke-width:0.34999999;stroke-miterlimit:4;stroke-dasharray:none"
           d="M 206,-115 H 194"
           id="Shape2DView002_nwe0006"
           inkscape:connector-curvature="0" />
        <path
           style="fill:none;fill-rule:evenodd;stroke:#191919;stroke-width:0.34999999;stroke-miterlimit:4;stroke-dasharray:none"
           d="m 194,-115 v -3"
           id="Shape2DView002_nwe0007"
           inkscape:connector-curvature="0" />
        <path
           style="fill:none;fill-rule:evenodd;stroke:#191919;stroke-width:0.34999999;stroke-miterlimit:4;stroke-dasharray:none"
           d="m 194,-118 h 12"
           id="Shape2DView002_nwe0008"
           inkscape:connector-curvature="0" />
        <path
           style="fill:none;fill-rule:evenodd;stroke:#191919;stroke-width:0.34999999;stroke-miterlimit:4;stroke-dasharray:none"
           d="m 197.17098,-95.1 h 5.65804"
           id="Shape2DView002_nwe0009"
           inkscape:connector-curvature="0" />
        <path
           style="fill:none;fill-rule:evenodd;stroke:#191919;stroke-width:0.34999999;stroke-miterlimit:4;stroke-dasharray:none"
           d="m 194.34197,-100 2.82901,4.9"
           id="Shape2DView002_nwe0010"
           inkscape:connector-curvature="0" />
        <path
           style="fill:none;fill-rule:evenodd;stroke:#191919;stroke-width:0.34999999;stroke-miterlimit:4;stroke-dasharray:none"
           d="m 202.82902,-95.1 2.82901,-4.9"
           id="Shape2DView002_nwe0011"
           inkscape:connector-curvature="0" />
        <path
           style="fill:none;fill-rule:evenodd;stroke:#191919;stroke-width:0.34999999;stroke-miterlimit:4;stroke-dasharray:none"
           d="m 197.17098,-104.9 -2.82901,4.9"
           id="Shape2DView002_nwe0012"
           inkscape:connector-curvature="0" />
        <path
           style="fill:none;fill-rule:evenodd;stroke:#191919;stroke-width:0.34999999;stroke-miterlimit:4;stroke-dasharray:none"
           d="m 205.65803,-100 -2.82901,-4.9"
           id="Shape2DView002_nwe0013"
           inkscape:connector-curvature="0" />
        <path
           style="fill:none;fill-rule:evenodd;stroke:#191919;stroke-width:0.34999999;stroke-miterlimit:4;stroke-dasharray:none"
           d="m 202.82902,-104.9 h -5.65804"
           id="Shape2DView002_nwe0014"
           inkscape:connector-curvature="0" />
        <path
           style="fill:none;fill-rule:evenodd;stroke:#191919;stroke-width:0.34999999;stroke-miterlimit:4;stroke-dasharray:none"
           d="m 206,-85 v 3"
           id="Shape2DView002_nwe0015"
           inkscape:connector-curvature="0" />
        <path
           style="fill:none;fill-rule:evenodd;stroke:#191919;stroke-width:0.34999999;stroke-miterlimit:4;stroke-dasharray:none"
           d="M 206,-82 H 194"
           id="Shape2DView002_nwe0016"
           inkscape:connector-curvature="0" />
        <path
           style="fill:none;fill-rule:evenodd;stroke:#191919;stroke-width:0.34999999;stroke-miterlimit:4;stroke-dasharray:none"
           d="m 194,-82 v -3"
           id="Shape2DView002_nwe0017"
           inkscape:connector-curvature="0" />
        <path
           style="fill:none;fill-rule:evenodd;stroke:#191919;stroke-width:0.34999999;stroke-miterlimit:4;stroke-dasharray:none"
           d="m 194,-85 h 12"
           id="Shape2DView002_nwe0018"
           inkscape:connector-curvature="0" />
        <path
           style="fill:none;fill-rule:evenodd;stroke:#191919;stroke-width:0.34999999;stroke-miterlimit:4;stroke-dasharray:none"
           d="m 182,-94 h 3"
           id="Shape2DView002_nwe0019"
           inkscape:connector-curvature="0" />
        <path
           style="fill:none;fill-rule:evenodd;stroke:#191919;stroke-width:0.34999999;stroke-miterlimit:4;stroke-dasharray:none"
           d="m 182,-106 v 12"
           id="Shape2DView002_nwe0020"
           inkscape:connector-curvature="0" />
        <path
           style="fill:none;fill-rule:evenodd;stroke:#191919;stroke-width:0.34999999;stroke-miterlimit:4;stroke-dasharray:none"
           d="m 185,-106 h -3"
           id="Shape2DView002_nwe0021"
           inkscape:connector-curvature="0" />
        <path
           style="fill:none;fill-rule:evenodd;stroke:#191919;stroke-width:0.34999999;stroke-miterlimit:4;stroke-dasharray:none"
           d="m 185,-94 v -12"
           id="Shape2DView002_nwe0022"
           inkscape:connector-curvature="0" />
        <title
           id="title5164">EcrouCaptif</title>
      </g>
      <g
         transform="matrix(0.26458333,0,0,0.26458333,-55.943655,-155.38024)"
         inkscape:label="0"
         id="g4707-3">
        <use
           height="100%"
           width="100%"
           y="0"
           x="0"
           xlink:href="#SHAPE2DVIEW001"
           id="use4705-1" />
      </g>
      <g
         transform="translate(258.50553,122.91353)"
         id="g5916">
        <g
           transform="matrix(0.99999993,0,0,-0.99999993,-329.75874,165.75412)"
           id="Shape2DView">
          <path
             style="fill:none;fill-rule:evenodd;stroke:#191919;stroke-width:0.34999999;stroke-miterlimit:4;stroke-dasharray:none"
             d="M 106,-6 H 94"
             id="Shape2DView_nwe0000"
             inkscape:connector-curvature="0" />
          <path
             style="fill:none;fill-rule:evenodd;stroke:#191919;stroke-width:0.34999999;stroke-miterlimit:4;stroke-dasharray:none"
             d="M 94,-6 V 0"
             id="Shape2DView_nwe0001"
             inkscape:connector-curvature="0" />
          <path
             style="fill:none;fill-rule:evenodd;stroke:#191919;stroke-width:0.34999999;stroke-miterlimit:4;stroke-dasharray:none"
             d="M 94,0 H 85"
             id="Shape2DView_nwe0002"
             inkscape:connector-curvature="0" />
          <path
             style="fill:none;fill-rule:evenodd;stroke:#191919;stroke-width:0.34999999;stroke-miterlimit:4;stroke-dasharray:none"
             d="M 85,0 V 16"
             id="Shape2DView_nwe0003"
             inkscape:connector-curvature="0" />
          <path
             style="fill:none;fill-rule:evenodd;stroke:#191919;stroke-width:0.34999999;stroke-miterlimit:4;stroke-dasharray:none"
             d="M 85,16 H 82"
             id="Shape2DView_nwe0004"
             inkscape:connector-curvature="0" />
          <path
             style="fill:none;fill-rule:evenodd;stroke:#191919;stroke-width:0.34999999;stroke-miterlimit:4;stroke-dasharray:none"
             d="M 82,16 V 66"
             id="Shape2DView_nwe0005"
             inkscape:connector-curvature="0" />
          <path
             style="fill:none;fill-rule:evenodd;stroke:#191919;stroke-width:0.34999999;stroke-miterlimit:4;stroke-dasharray:none"
             d="m 82,66 h 3"
             id="Shape2DView_nwe0006"
             inkscape:connector-curvature="0" />
          <path
             style="fill:none;fill-rule:evenodd;stroke:#191919;stroke-width:0.34999999;stroke-miterlimit:4;stroke-dasharray:none"
             d="M 85,66 V 82"
             id="Shape2DView_nwe0007"
             inkscape:connector-curvature="0" />
          <path
             style="fill:none;fill-rule:evenodd;stroke:#191919;stroke-width:0.34999999;stroke-miterlimit:4;stroke-dasharray:none"
             d="m 85,82 h 9"
             id="Shape2DView_nwe0008"
             inkscape:connector-curvature="0" />
          <path
             style="fill:none;fill-rule:evenodd;stroke:#191919;stroke-width:0.34999999;stroke-miterlimit:4;stroke-dasharray:none"
             d="m 94,82 v 6"
             id="Shape2DView_nwe0009"
             inkscape:connector-curvature="0" />
          <path
             style="fill:none;fill-rule:evenodd;stroke:#191919;stroke-width:0.34999999;stroke-miterlimit:4;stroke-dasharray:none"
             d="m 94,88 h 12"
             id="Shape2DView_nwe0010"
             inkscape:connector-curvature="0" />
          <path
             style="fill:none;fill-rule:evenodd;stroke:#191919;stroke-width:0.34999999;stroke-miterlimit:4;stroke-dasharray:none"
             d="M 106,88 V 82"
             id="Shape2DView_nwe0011"
             inkscape:connector-curvature="0" />
          <path
             style="fill:none;fill-rule:evenodd;stroke:#191919;stroke-width:0.34999999;stroke-miterlimit:4;stroke-dasharray:none"
             d="m 106,82 h 15"
             id="Shape2DView_nwe0012"
             inkscape:connector-curvature="0" />
          <path
             style="fill:none;fill-rule:evenodd;stroke:#191919;stroke-width:0.34999999;stroke-miterlimit:4;stroke-dasharray:none"
             d="M 121,82 V 0"
             id="Shape2DView_nwe0013"
             inkscape:connector-curvature="0" />
          <path
             style="fill:none;fill-rule:evenodd;stroke:#191919;stroke-width:0.34999999;stroke-miterlimit:4;stroke-dasharray:none"
             d="M 121,0 H 106"
             id="Shape2DView_nwe0014"
             inkscape:connector-curvature="0" />
          <path
             style="fill:none;fill-rule:evenodd;stroke:#191919;stroke-width:0.34999999;stroke-miterlimit:4;stroke-dasharray:none"
             d="M 106,0 V -6"
             id="Shape2DView_nwe0015"
             inkscape:connector-curvature="0" />
          <path
             style="fill:none;fill-rule:evenodd;stroke:#191919;stroke-width:0.34999999;stroke-miterlimit:4;stroke-dasharray:none"
             d="M 115,16 V 66"
             id="Shape2DView_nwe0016"
             inkscape:connector-curvature="0" />
          <path
             style="fill:none;fill-rule:evenodd;stroke:#191919;stroke-width:0.34999999;stroke-miterlimit:4;stroke-dasharray:none"
             d="m 115,66 h 3"
             id="Shape2DView_nwe0017"
             inkscape:connector-curvature="0" />
          <path
             style="fill:none;fill-rule:evenodd;stroke:#191919;stroke-width:0.34999999;stroke-miterlimit:4;stroke-dasharray:none"
             d="M 118,66 V 16"
             id="Shape2DView_nwe0018"
             inkscape:connector-curvature="0" />
          <path
             style="fill:none;fill-rule:evenodd;stroke:#191919;stroke-width:0.34999999;stroke-miterlimit:4;stroke-dasharray:none"
             d="m 118,16 h -3"
             id="Shape2DView_nwe0019"
             inkscape:connector-curvature="0" />
          <title
             id="title5363">Moyeu</title>
        </g>
        <g
           transform="matrix(0.99999993,0,0,-0.99999993,-282.96997,165.75412)"
           id="Shape2DView-4">
          <path
             style="fill:none;fill-rule:evenodd;stroke:#191919;stroke-width:0.34999999;stroke-miterlimit:4;stroke-dasharray:none"
             d="M 106,-6 H 94"
             id="Shape2DView_nwe0000-9"
             inkscape:connector-curvature="0" />
          <path
             style="fill:none;fill-rule:evenodd;stroke:#191919;stroke-width:0.34999999;stroke-miterlimit:4;stroke-dasharray:none"
             d="M 94,-6 V 0"
             id="Shape2DView_nwe0001-2"
             inkscape:connector-curvature="0" />
          <path
             style="fill:none;fill-rule:evenodd;stroke:#191919;stroke-width:0.34999999;stroke-miterlimit:4;stroke-dasharray:none"
             d="M 94,0 H 85"
             id="Shape2DView_nwe0002-0"
             inkscape:connector-curvature="0" />
          <path
             style="fill:none;fill-rule:evenodd;stroke:#191919;stroke-width:0.34999999;stroke-miterlimit:4;stroke-dasharray:none"
             d="M 85,0 V 16"
             id="Shape2DView_nwe0003-6"
             inkscape:connector-curvature="0" />
          <path
             style="fill:none;fill-rule:evenodd;stroke:#191919;stroke-width:0.34999999;stroke-miterlimit:4;stroke-dasharray:none"
             d="M 85,16 H 82"
             id="Shape2DView_nwe0004-8"
             inkscape:connector-curvature="0" />
          <path
             style="fill:none;fill-rule:evenodd;stroke:#191919;stroke-width:0.34999999;stroke-miterlimit:4;stroke-dasharray:none"
             d="M 82,16 V 66"
             id="Shape2DView_nwe0005-9"
             inkscape:connector-curvature="0" />
          <path
             style="fill:none;fill-rule:evenodd;stroke:#191919;stroke-width:0.34999999;stroke-miterlimit:4;stroke-dasharray:none"
             d="m 82,66 h 3"
             id="Shape2DView_nwe0006-2"
             inkscape:connector-curvature="0" />
          <path
             style="fill:none;fill-rule:evenodd;stroke:#191919;stroke-width:0.34999999;stroke-miterlimit:4;stroke-dasharray:none"
             d="M 85,66 V 82"
             id="Shape2DView_nwe0007-6"
             inkscape:connector-curvature="0" />
          <path
             style="fill:none;fill-rule:evenodd;stroke:#191919;stroke-width:0.34999999;stroke-miterlimit:4;stroke-dasharray:none"
             d="m 85,82 h 9"
             id="Shape2DView_nwe0008-6"
             inkscape:connector-curvature="0" />
          <path
             style="fill:none;fill-rule:evenodd;stroke:#191919;stroke-width:0.34999999;stroke-miterlimit:4;stroke-dasharray:none"
             d="m 94,82 v 6"
             id="Shape2DView_nwe0009-4"
             inkscape:connector-curvature="0" />
          <path
             style="fill:none;fill-rule:evenodd;stroke:#191919;stroke-width:0.34999999;stroke-miterlimit:4;stroke-dasharray:none"
             d="m 94,88 h 12"
             id="Shape2DView_nwe0010-9"
             inkscape:connector-curvature="0" />
          <path
             style="fill:none;fill-rule:evenodd;stroke:#191919;stroke-width:0.34999999;stroke-miterlimit:4;stroke-dasharray:none"
             d="M 106,88 V 82"
             id="Shape2DView_nwe0011-5"
             inkscape:connector-curvature="0" />
          <path
             style="fill:none;fill-rule:evenodd;stroke:#191919;stroke-width:0.34999999;stroke-miterlimit:4;stroke-dasharray:none"
             d="m 106,82 h 15"
             id="Shape2DView_nwe0012-0"
             inkscape:connector-curvature="0" />
          <path
             style="fill:none;fill-rule:evenodd;stroke:#191919;stroke-width:0.34999999;stroke-miterlimit:4;stroke-dasharray:none"
             d="M 121,82 V 0"
             id="Shape2DView_nwe0013-4"
             inkscape:connector-curvature="0" />
          <path
             style="fill:none;fill-rule:evenodd;stroke:#191919;stroke-width:0.34999999;stroke-miterlimit:4;stroke-dasharray:none"
             d="M 121,0 H 106"
             id="Shape2DView_nwe0014-8"
             inkscape:connector-curvature="0" />
          <path
             style="fill:none;fill-rule:evenodd;stroke:#191919;stroke-width:0.34999999;stroke-miterlimit:4;stroke-dasharray:none"
             d="M 106,0 V -6"
             id="Shape2DView_nwe0015-7"
             inkscape:connector-curvature="0" />
          <path
             style="fill:none;fill-rule:evenodd;stroke:#191919;stroke-width:0.34999999;stroke-miterlimit:4;stroke-dasharray:none"
             d="M 115,16 V 66"
             id="Shape2DView_nwe0016-1"
             inkscape:connector-curvature="0" />
          <path
             style="fill:none;fill-rule:evenodd;stroke:#191919;stroke-width:0.34999999;stroke-miterlimit:4;stroke-dasharray:none"
             d="m 115,66 h 3"
             id="Shape2DView_nwe0017-7"
             inkscape:connector-curvature="0" />
          <path
             style="fill:none;fill-rule:evenodd;stroke:#191919;stroke-width:0.34999999;stroke-miterlimit:4;stroke-dasharray:none"
             d="M 118,66 V 16"
             id="Shape2DView_nwe0018-2"
             inkscape:connector-curvature="0" />
          <path
             style="fill:none;fill-rule:evenodd;stroke:#191919;stroke-width:0.34999999;stroke-miterlimit:4;stroke-dasharray:none"
             d="m 118,16 h -3"
             id="Shape2DView_nwe0019-7"
             inkscape:connector-curvature="0" />
          <title
             id="title5363-2">Moyeu</title>
        </g>
        <g
           transform="matrix(0.99999993,0,0,-0.99999993,-236.18121,165.75412)"
           id="Shape2DView-2">
          <path
             style="fill:none;fill-rule:evenodd;stroke:#191919;stroke-width:0.34999999;stroke-miterlimit:4;stroke-dasharray:none"
             d="M 106,-6 H 94"
             id="Shape2DView_nwe0000-6"
             inkscape:connector-curvature="0" />
          <path
             style="fill:none;fill-rule:evenodd;stroke:#191919;stroke-width:0.34999999;stroke-miterlimit:4;stroke-dasharray:none"
             d="M 94,-6 V 0"
             id="Shape2DView_nwe0001-1"
             inkscape:connector-curvature="0" />
          <path
             style="fill:none;fill-rule:evenodd;stroke:#191919;stroke-width:0.34999999;stroke-miterlimit:4;stroke-dasharray:none"
             d="M 94,0 H 85"
             id="Shape2DView_nwe0002-06"
             inkscape:connector-curvature="0" />
          <path
             style="fill:none;fill-rule:evenodd;stroke:#191919;stroke-width:0.34999999;stroke-miterlimit:4;stroke-dasharray:none"
             d="M 85,0 V 16"
             id="Shape2DView_nwe0003-1"
             inkscape:connector-curvature="0" />
          <path
             style="fill:none;fill-rule:evenodd;stroke:#191919;stroke-width:0.34999999;stroke-miterlimit:4;stroke-dasharray:none"
             d="M 85,16 H 82"
             id="Shape2DView_nwe0004-5"
             inkscape:connector-curvature="0" />
          <path
             style="fill:none;fill-rule:evenodd;stroke:#191919;stroke-width:0.34999999;stroke-miterlimit:4;stroke-dasharray:none"
             d="M 82,16 V 66"
             id="Shape2DView_nwe0005-94"
             inkscape:connector-curvature="0" />
          <path
             style="fill:none;fill-rule:evenodd;stroke:#191919;stroke-width:0.34999999;stroke-miterlimit:4;stroke-dasharray:none"
             d="m 82,66 h 3"
             id="Shape2DView_nwe0006-9"
             inkscape:connector-curvature="0" />
          <path
             style="fill:none;fill-rule:evenodd;stroke:#191919;stroke-width:0.34999999;stroke-miterlimit:4;stroke-dasharray:none"
             d="M 85,66 V 82"
             id="Shape2DView_nwe0007-0"
             inkscape:connector-curvature="0" />
          <path
             style="fill:none;fill-rule:evenodd;stroke:#191919;stroke-width:0.34999999;stroke-miterlimit:4;stroke-dasharray:none"
             d="m 85,82 h 9"
             id="Shape2DView_nwe0008-9"
             inkscape:connector-curvature="0" />
          <path
             style="fill:none;fill-rule:evenodd;stroke:#191919;stroke-width:0.34999999;stroke-miterlimit:4;stroke-dasharray:none"
             d="m 94,82 v 6"
             id="Shape2DView_nwe0009-1"
             inkscape:connector-curvature="0" />
          <path
             style="fill:none;fill-rule:evenodd;stroke:#191919;stroke-width:0.34999999;stroke-miterlimit:4;stroke-dasharray:none"
             d="m 94,88 h 12"
             id="Shape2DView_nwe0010-7"
             inkscape:connector-curvature="0" />
          <path
             style="fill:none;fill-rule:evenodd;stroke:#191919;stroke-width:0.34999999;stroke-miterlimit:4;stroke-dasharray:none"
             d="M 106,88 V 82"
             id="Shape2DView_nwe0011-7"
             inkscape:connector-curvature="0" />
          <path
             style="fill:none;fill-rule:evenodd;stroke:#191919;stroke-width:0.34999999;stroke-miterlimit:4;stroke-dasharray:none"
             d="m 106,82 h 15"
             id="Shape2DView_nwe0012-1"
             inkscape:connector-curvature="0" />
          <path
             style="fill:none;fill-rule:evenodd;stroke:#191919;stroke-width:0.34999999;stroke-miterlimit:4;stroke-dasharray:none"
             d="M 121,82 V 0"
             id="Shape2DView_nwe0013-1"
             inkscape:connector-curvature="0" />
          <path
             style="fill:none;fill-rule:evenodd;stroke:#191919;stroke-width:0.34999999;stroke-miterlimit:4;stroke-dasharray:none"
             d="M 121,0 H 106"
             id="Shape2DView_nwe0014-5"
             inkscape:connector-curvature="0" />
          <path
             style="fill:none;fill-rule:evenodd;stroke:#191919;stroke-width:0.34999999;stroke-miterlimit:4;stroke-dasharray:none"
             d="M 106,0 V -6"
             id="Shape2DView_nwe0015-9"
             inkscape:connector-curvature="0" />
          <path
             style="fill:none;fill-rule:evenodd;stroke:#191919;stroke-width:0.34999999;stroke-miterlimit:4;stroke-dasharray:none"
             d="M 115,16 V 66"
             id="Shape2DView_nwe0016-7"
             inkscape:connector-curvature="0" />
          <path
             style="fill:none;fill-rule:evenodd;stroke:#191919;stroke-width:0.34999999;stroke-miterlimit:4;stroke-dasharray:none"
             d="m 115,66 h 3"
             id="Shape2DView_nwe0017-76"
             inkscape:connector-curvature="0" />
          <path
             style="fill:none;fill-rule:evenodd;stroke:#191919;stroke-width:0.34999999;stroke-miterlimit:4;stroke-dasharray:none"
             d="M 118,66 V 16"
             id="Shape2DView_nwe0018-7"
             inkscape:connector-curvature="0" />
          <path
             style="fill:none;fill-rule:evenodd;stroke:#191919;stroke-width:0.34999999;stroke-miterlimit:4;stroke-dasharray:none"
             d="m 118,16 h -3"
             id="Shape2DView_nwe0019-3"
             inkscape:connector-curvature="0" />
          <title
             id="title5363-6">Moyeu</title>
        </g>
        <g
           transform="matrix(0.99999993,0,0,-0.99999993,-189.39244,165.75412)"
           id="Shape2DView-4-5">
          <path
             style="fill:none;fill-rule:evenodd;stroke:#191919;stroke-width:0.34999999;stroke-miterlimit:4;stroke-dasharray:none"
             d="M 106,-6 H 94"
             id="Shape2DView_nwe0000-9-6"
             inkscape:connector-curvature="0" />
          <path
             style="fill:none;fill-rule:evenodd;stroke:#191919;stroke-width:0.34999999;stroke-miterlimit:4;stroke-dasharray:none"
             d="M 94,-6 V 0"
             id="Shape2DView_nwe0001-2-3"
             inkscape:connector-curvature="0" />
          <path
             style="fill:none;fill-rule:evenodd;stroke:#191919;stroke-width:0.34999999;stroke-miterlimit:4;stroke-dasharray:none"
             d="M 94,0 H 85"
             id="Shape2DView_nwe0002-0-9"
             inkscape:connector-curvature="0" />
          <path
             style="fill:none;fill-rule:evenodd;stroke:#191919;stroke-width:0.34999999;stroke-miterlimit:4;stroke-dasharray:none"
             d="M 85,0 V 16"
             id="Shape2DView_nwe0003-6-4"
             inkscape:connector-curvature="0" />
          <path
             style="fill:none;fill-rule:evenodd;stroke:#191919;stroke-width:0.34999999;stroke-miterlimit:4;stroke-dasharray:none"
             d="M 85,16 H 82"
             id="Shape2DView_nwe0004-8-8"
             inkscape:connector-curvature="0" />
          <path
             style="fill:none;fill-rule:evenodd;stroke:#191919;stroke-width:0.34999999;stroke-miterlimit:4;stroke-dasharray:none"
             d="M 82,16 V 66"
             id="Shape2DView_nwe0005-9-1"
             inkscape:connector-curvature="0" />
          <path
             style="fill:none;fill-rule:evenodd;stroke:#191919;stroke-width:0.34999999;stroke-miterlimit:4;stroke-dasharray:none"
             d="m 82,66 h 3"
             id="Shape2DView_nwe0006-2-2"
             inkscape:connector-curvature="0" />
          <path
             style="fill:none;fill-rule:evenodd;stroke:#191919;stroke-width:0.34999999;stroke-miterlimit:4;stroke-dasharray:none"
             d="M 85,66 V 82"
             id="Shape2DView_nwe0007-6-9"
             inkscape:connector-curvature="0" />
          <path
             style="fill:none;fill-rule:evenodd;stroke:#191919;stroke-width:0.34999999;stroke-miterlimit:4;stroke-dasharray:none"
             d="m 85,82 h 9"
             id="Shape2DView_nwe0008-6-3"
             inkscape:connector-curvature="0" />
          <path
             style="fill:none;fill-rule:evenodd;stroke:#191919;stroke-width:0.34999999;stroke-miterlimit:4;stroke-dasharray:none"
             d="m 94,82 v 6"
             id="Shape2DView_nwe0009-4-9"
             inkscape:connector-curvature="0" />
          <path
             style="fill:none;fill-rule:evenodd;stroke:#191919;stroke-width:0.34999999;stroke-miterlimit:4;stroke-dasharray:none"
             d="m 94,88 h 12"
             id="Shape2DView_nwe0010-9-0"
             inkscape:connector-curvature="0" />
          <path
             style="fill:none;fill-rule:evenodd;stroke:#191919;stroke-width:0.34999999;stroke-miterlimit:4;stroke-dasharray:none"
             d="M 106,88 V 82"
             id="Shape2DView_nwe0011-5-8"
             inkscape:connector-curvature="0" />
          <path
             style="fill:none;fill-rule:evenodd;stroke:#191919;stroke-width:0.34999999;stroke-miterlimit:4;stroke-dasharray:none"
             d="m 106,82 h 15"
             id="Shape2DView_nwe0012-0-8"
             inkscape:connector-curvature="0" />
          <path
             style="fill:none;fill-rule:evenodd;stroke:#191919;stroke-width:0.34999999;stroke-miterlimit:4;stroke-dasharray:none"
             d="M 121,82 V 0"
             id="Shape2DView_nwe0013-4-5"
             inkscape:connector-curvature="0" />
          <path
             style="fill:none;fill-rule:evenodd;stroke:#191919;stroke-width:0.34999999;stroke-miterlimit:4;stroke-dasharray:none"
             d="M 121,0 H 106"
             id="Shape2DView_nwe0014-8-0"
             inkscape:connector-curvature="0" />
          <path
             style="fill:none;fill-rule:evenodd;stroke:#191919;stroke-width:0.34999999;stroke-miterlimit:4;stroke-dasharray:none"
             d="M 106,0 V -6"
             id="Shape2DView_nwe0015-7-9"
             inkscape:connector-curvature="0" />
          <path
             style="fill:none;fill-rule:evenodd;stroke:#191919;stroke-width:0.34999999;stroke-miterlimit:4;stroke-dasharray:none"
             d="M 115,16 V 66"
             id="Shape2DView_nwe0016-1-6"
             inkscape:connector-curvature="0" />
          <path
             style="fill:none;fill-rule:evenodd;stroke:#191919;stroke-width:0.34999999;stroke-miterlimit:4;stroke-dasharray:none"
             d="m 115,66 h 3"
             id="Shape2DView_nwe0017-7-3"
             inkscape:connector-curvature="0" />
          <path
             style="fill:none;fill-rule:evenodd;stroke:#191919;stroke-width:0.34999999;stroke-miterlimit:4;stroke-dasharray:none"
             d="M 118,66 V 16"
             id="Shape2DView_nwe0018-2-8"
             inkscape:connector-curvature="0" />
          <path
             style="fill:none;fill-rule:evenodd;stroke:#191919;stroke-width:0.34999999;stroke-miterlimit:4;stroke-dasharray:none"
             d="m 118,16 h -3"
             id="Shape2DView_nwe0019-7-5"
             inkscape:connector-curvature="0" />
          <title
             id="title5363-2-6">Moyeu</title>
        </g>
      </g>
      <g
         transform="matrix(1,0,0,-1,-50.863606,-54.770578)"
         id="Shape2DView002-1">
        <path
           id="path5140-1"
           style="fill:none;stroke:#191919;stroke-width:0.34999999;stroke-miterlimit:4;stroke-dasharray:none"
           d="m 200,-70 10.2606,-1.809221 9.02303,-5.209446 6.69713,-7.981333 3.56347,-9.790555 V -105.20945 L 225.98076,-115 l -6.69713,-7.98133 -9.02303,-5.20945 L 200,-130 l -10.2606,1.80922 -9.02303,5.20945 -6.69713,7.98133 -3.56347,9.79055 v 10.418895 L 174.01924,-85 l 6.69713,7.981333 9.02303,5.209446 L 200,-70"
           inkscape:connector-curvature="0" />
        <path
           style="fill:none;fill-rule:evenodd;stroke:#191919;stroke-width:0.34999999;stroke-miterlimit:4;stroke-dasharray:none"
           d="m 215,-106 v 12"
           id="Shape2DView002_nwe0001-5"
           inkscape:connector-curvature="0" />
        <path
           style="fill:none;fill-rule:evenodd;stroke:#191919;stroke-width:0.34999999;stroke-miterlimit:4;stroke-dasharray:none"
           d="m 218,-106 h -3"
           id="Shape2DView002_nwe0002-9"
           inkscape:connector-curvature="0" />
        <path
           style="fill:none;fill-rule:evenodd;stroke:#191919;stroke-width:0.34999999;stroke-miterlimit:4;stroke-dasharray:none"
           d="m 218,-94 v -12"
           id="Shape2DView002_nwe0003-8"
           inkscape:connector-curvature="0" />
        <path
           style="fill:none;fill-rule:evenodd;stroke:#191919;stroke-width:0.34999999;stroke-miterlimit:4;stroke-dasharray:none"
           d="m 215,-94 h 3"
           id="Shape2DView002_nwe0004-4"
           inkscape:connector-curvature="0" />
        <path
           style="fill:none;fill-rule:evenodd;stroke:#191919;stroke-width:0.34999999;stroke-miterlimit:4;stroke-dasharray:none"
           d="m 206,-118 v 3"
           id="Shape2DView002_nwe0005-8"
           inkscape:connector-curvature="0" />
        <path
           style="fill:none;fill-rule:evenodd;stroke:#191919;stroke-width:0.34999999;stroke-miterlimit:4;stroke-dasharray:none"
           d="M 206,-115 H 194"
           id="Shape2DView002_nwe0006-1"
           inkscape:connector-curvature="0" />
        <path
           style="fill:none;fill-rule:evenodd;stroke:#191919;stroke-width:0.34999999;stroke-miterlimit:4;stroke-dasharray:none"
           d="m 194,-115 v -3"
           id="Shape2DView002_nwe0007-0"
           inkscape:connector-curvature="0" />
        <path
           style="fill:none;fill-rule:evenodd;stroke:#191919;stroke-width:0.34999999;stroke-miterlimit:4;stroke-dasharray:none"
           d="m 194,-118 h 12"
           id="Shape2DView002_nwe0008-3"
           inkscape:connector-curvature="0" />
        <path
           style="fill:none;fill-rule:evenodd;stroke:#191919;stroke-width:0.34999999;stroke-miterlimit:4;stroke-dasharray:none"
           d="m 197.17098,-95.1 h 5.65804"
           id="Shape2DView002_nwe0009-0"
           inkscape:connector-curvature="0" />
        <path
           style="fill:none;fill-rule:evenodd;stroke:#191919;stroke-width:0.34999999;stroke-miterlimit:4;stroke-dasharray:none"
           d="m 194.34197,-100 2.82901,4.9"
           id="Shape2DView002_nwe0010-4"
           inkscape:connector-curvature="0" />
        <path
           style="fill:none;fill-rule:evenodd;stroke:#191919;stroke-width:0.34999999;stroke-miterlimit:4;stroke-dasharray:none"
           d="m 202.82902,-95.1 2.82901,-4.9"
           id="Shape2DView002_nwe0011-4"
           inkscape:connector-curvature="0" />
        <path
           style="fill:none;fill-rule:evenodd;stroke:#191919;stroke-width:0.34999999;stroke-miterlimit:4;stroke-dasharray:none"
           d="m 197.17098,-104.9 -2.82901,4.9"
           id="Shape2DView002_nwe0012-4"
           inkscape:connector-curvature="0" />
        <path
           style="fill:none;fill-rule:evenodd;stroke:#191919;stroke-width:0.34999999;stroke-miterlimit:4;stroke-dasharray:none"
           d="m 205.65803,-100 -2.82901,-4.9"
           id="Shape2DView002_nwe0013-4"
           inkscape:connector-curvature="0" />
        <path
           style="fill:none;fill-rule:evenodd;stroke:#191919;stroke-width:0.34999999;stroke-miterlimit:4;stroke-dasharray:none"
           d="m 202.82902,-104.9 h -5.65804"
           id="Shape2DView002_nwe0014-7"
           inkscape:connector-curvature="0" />
        <path
           style="fill:none;fill-rule:evenodd;stroke:#191919;stroke-width:0.34999999;stroke-miterlimit:4;stroke-dasharray:none"
           d="m 206,-85 v 3"
           id="Shape2DView002_nwe0015-6"
           inkscape:connector-curvature="0" />
        <path
           style="fill:none;fill-rule:evenodd;stroke:#191919;stroke-width:0.34999999;stroke-miterlimit:4;stroke-dasharray:none"
           d="M 206,-82 H 194"
           id="Shape2DView002_nwe0016-3"
           inkscape:connector-curvature="0" />
        <path
           style="fill:none;fill-rule:evenodd;stroke:#191919;stroke-width:0.34999999;stroke-miterlimit:4;stroke-dasharray:none"
           d="m 194,-82 v -3"
           id="Shape2DView002_nwe0017-1"
           inkscape:connector-curvature="0" />
        <path
           style="fill:none;fill-rule:evenodd;stroke:#191919;stroke-width:0.34999999;stroke-miterlimit:4;stroke-dasharray:none"
           d="m 194,-85 h 12"
           id="Shape2DView002_nwe0018-7"
           inkscape:connector-curvature="0" />
        <path
           style="fill:none;fill-rule:evenodd;stroke:#191919;stroke-width:0.34999999;stroke-miterlimit:4;stroke-dasharray:none"
           d="m 182,-94 h 3"
           id="Shape2DView002_nwe0019-5"
           inkscape:connector-curvature="0" />
        <path
           style="fill:none;fill-rule:evenodd;stroke:#191919;stroke-width:0.34999999;stroke-miterlimit:4;stroke-dasharray:none"
           d="m 182,-106 v 12"
           id="Shape2DView002_nwe0020-9"
           inkscape:connector-curvature="0" />
        <path
           style="fill:none;fill-rule:evenodd;stroke:#191919;stroke-width:0.34999999;stroke-miterlimit:4;stroke-dasharray:none"
           d="m 185,-106 h -3"
           id="Shape2DView002_nwe0021-6"
           inkscape:connector-curvature="0" />
        <path
           style="fill:none;fill-rule:evenodd;stroke:#191919;stroke-width:0.34999999;stroke-miterlimit:4;stroke-dasharray:none"
           d="m 185,-94 v -12"
           id="Shape2DView002_nwe0022-2"
           inkscape:connector-curvature="0" />
        <title
           id="title5164-1">EcrouCaptif</title>
      </g>
    </g>
  </g>
</svg>
