<?xml version="1.0"?>
<!DOCTYPE svg PUBLIC "-//W3C//DTD SVG 1.1//EN" "http://www.w3.org/Graphics/SVG/1.1/DTD/svg11.dtd">
<svg width="161.617422392mm" height="186.168969067mm" viewBox="0 0 161.617422392 186.168969067" xmlns="http://www.w3.org/2000/svg" version="1.1">
<g id="Shape2DView001" transform="translate(-92.967062,54.584485) scale(1,-1)">
<path d="M 200.0 53.0 L 210.030315951 52.0422209549 L 219.69811015 49.2035004499 L 228.653963325 44.5864372401 L 236.574187609 38.3579040196 L 243.172525459 30.7430162073 L 248.210495754 22.0169956891 L 251.506013121 12.495223582 L 252.939968977 2.52184153866 L 252.46053642 -7.54268642848 L 250.085043392 -17.3346020558 L 245.899346401 -26.5 L 240.054727441 -34.7076188991 L 232.76242627 -41.6608140214 L 224.286005652 -47.1082787787 L 214.931825513 -50.8531276016 L 205.037970295 -52.7600118964 L 194.962029705 -52.7600118964 L 185.068174487 -50.8531276016 L 175.713994348 -47.1082787787 L 167.23757373 -41.6608140214 L 159.945272559 -34.7076188991 L 154.100653599 -26.5 L 149.914956608 -17.3346020558 L 147.53946358 -7.54268642848 L 147.060031023 2.52184153866 L 148.493986879 12.495223582 L 151.789504246 22.0169956891 L 156.827474541 30.7430162073 L 163.425812391 38.3579040196 L 171.346036675 44.5864372401 L 180.30188985 49.2035004499 L 189.969684049 52.0422209549 L 200.0 53.0 " stroke="#191919" stroke-width="0.35 px" style="stroke-width:0.35;stroke-miterlimit:4;stroke-dasharray:none;fill:none"/>
<path d="M 150.86654494 9.37270782292 L 150.86654494 9.37270782292 " stroke="#191919" stroke-width="0.35 px" style="stroke-width:0.35;stroke-miterlimit:4;stroke-dasharray:none;fill:none"/>
<path d="M 152.428688687 15.4568560211 L 152.428688687 15.4568560211 " stroke="#191919" stroke-width="0.35 px" style="stroke-width:0.35;stroke-miterlimit:4;stroke-dasharray:none;fill:none"/>
<path d="M 154.741060432 21.2972403663 L 154.741060432 21.2972403663 " stroke="#191919" stroke-width="0.35 px" style="stroke-width:0.35;stroke-miterlimit:4;stroke-dasharray:none;fill:none"/>
<path d="M 161.459361547 31.8835889717 L 161.459361547 31.8835889717 " stroke="#191919" stroke-width="0.35 px" style="stroke-width:0.35;stroke-miterlimit:4;stroke-dasharray:none;fill:none"/>
<path d="M 157.76719269 26.8017545086 L 157.76719269 26.8017545086 " stroke="#191919" stroke-width="0.35 px" style="stroke-width:0.35;stroke-miterlimit:4;stroke-dasharray:none;fill:none"/>
<path d="M 165.759339297 36.4626001904 L 165.759339297 36.4626001904 " stroke="#191919" stroke-width="0.35 px" style="stroke-width:0.35;stroke-miterlimit:4;stroke-dasharray:none;fill:none"/>
<path d="M 170.599312719 40.4665744224 L 170.599312719 40.4665744224 " stroke="#191919" stroke-width="0.35 px" style="stroke-width:0.35;stroke-miterlimit:4;stroke-dasharray:none;fill:none"/>
<path d="M 212.439328095 48.4479842162 L 212.439328095 48.4479842162 " stroke="#191919" stroke-width="0.35 px" style="stroke-width:0.35;stroke-miterlimit:4;stroke-dasharray:none;fill:none"/>
<path d="M 206.269097756 49.6250186034 L 206.269097756 49.6250186034 " stroke="#191919" stroke-width="0.35 px" style="stroke-width:0.35;stroke-miterlimit:4;stroke-dasharray:none;fill:none"/>
<path d="M 193.730902244 49.6250186034 L 193.730902244 49.6250186034 " stroke="#191919" stroke-width="0.35 px" style="stroke-width:0.35;stroke-miterlimit:4;stroke-dasharray:none;fill:none"/>
<path d="M 200.0 50.0194368027 L 200.0 50.0194368027 " stroke="#191919" stroke-width="0.35 px" style="stroke-width:0.35;stroke-miterlimit:4;stroke-dasharray:none;fill:none"/>
<path d="M 175.902952544 43.8323666022 L 175.902952544 43.8323666022 " stroke="#191919" stroke-width="0.35 px" style="stroke-width:0.35;stroke-miterlimit:4;stroke-dasharray:none;fill:none"/>
<path d="M 187.560671905 48.4479842162 L 187.560671905 48.4479842162 " stroke="#191919" stroke-width="0.35 px" style="stroke-width:0.35;stroke-miterlimit:4;stroke-dasharray:none;fill:none"/>
<path d="M 181.586617201 46.5068961765 L 181.586617201 46.5068961765 " stroke="#191919" stroke-width="0.35 px" style="stroke-width:0.35;stroke-miterlimit:4;stroke-dasharray:none;fill:none"/>
<path id="Shape2DView001_nwe0015"  d="M 194.0 18.0 L 194.0 15.0 " stroke="#191919" stroke-width="0.35 px" style="stroke-width:0.35;stroke-miterlimit:4;stroke-dasharray:none;fill:none;fill-rule: evenodd "/>
<path id="Shape2DView001_nwe0016"  d="M 194.0 15.0 L 206.0 15.0 " stroke="#191919" stroke-width="0.35 px" style="stroke-width:0.35;stroke-miterlimit:4;stroke-dasharray:none;fill:none;fill-rule: evenodd "/>
<path id="Shape2DView001_nwe0017"  d="M 206.0 15.0 L 206.0 18.0 " stroke="#191919" stroke-width="0.35 px" style="stroke-width:0.35;stroke-miterlimit:4;stroke-dasharray:none;fill:none;fill-rule: evenodd "/>
<path id="Shape2DView001_nwe0018"  d="M 206.0 18.0 L 194.0 18.0 " stroke="#191919" stroke-width="0.35 px" style="stroke-width:0.35;stroke-miterlimit:4;stroke-dasharray:none;fill:none;fill-rule: evenodd "/>
<path d="M 150.86654494 -9.37270782292 L 150.86654494 -9.37270782292 " stroke="#191919" stroke-width="0.35 px" style="stroke-width:0.35;stroke-miterlimit:4;stroke-dasharray:none;fill:none"/>
<path d="M 150.07926513 -3.1407464234 L 150.07926513 -3.1407464234 " stroke="#191919" stroke-width="0.35 px" style="stroke-width:0.35;stroke-miterlimit:4;stroke-dasharray:none;fill:none"/>
<path d="M 150.07926513 3.1407464234 L 150.07926513 3.1407464234 " stroke="#191919" stroke-width="0.35 px" style="stroke-width:0.35;stroke-miterlimit:4;stroke-dasharray:none;fill:none"/>
<path d="M 200.0 3.0 L 200.0 3.0 " stroke="#191919" stroke-width="0.35 px" style="stroke-width:0.35;stroke-miterlimit:4;stroke-dasharray:none;fill:none"/>
<path id="Shape2DView001_nwe0023"  d="M 185.0 -6.0 L 182.0 -6.0 " stroke="#191919" stroke-width="0.35 px" style="stroke-width:0.35;stroke-miterlimit:4;stroke-dasharray:none;fill:none;fill-rule: evenodd "/>
<path id="Shape2DView001_nwe0024"  d="M 185.0 6.0 L 185.0 -6.0 " stroke="#191919" stroke-width="0.35 px" style="stroke-width:0.35;stroke-miterlimit:4;stroke-dasharray:none;fill:none;fill-rule: evenodd "/>
<path id="Shape2DView001_nwe0025"  d="M 182.0 6.0 L 185.0 6.0 " stroke="#191919" stroke-width="0.35 px" style="stroke-width:0.35;stroke-miterlimit:4;stroke-dasharray:none;fill:none;fill-rule: evenodd "/>
<path id="Shape2DView001_nwe0026"  d="M 182.0 -6.0 L 182.0 6.0 " stroke="#191919" stroke-width="0.35 px" style="stroke-width:0.35;stroke-miterlimit:4;stroke-dasharray:none;fill:none;fill-rule: evenodd "/>
<path d="M 154.741060432 -21.2972403663 L 154.741060432 -21.2972403663 " stroke="#191919" stroke-width="0.35 px" style="stroke-width:0.35;stroke-miterlimit:4;stroke-dasharray:none;fill:none"/>
<path d="M 152.428688687 -15.4568560211 L 152.428688687 -15.4568560211 " stroke="#191919" stroke-width="0.35 px" style="stroke-width:0.35;stroke-miterlimit:4;stroke-dasharray:none;fill:none"/>
<path id="Shape2DView001_nwe0029"  d="M 194.0 -15.0 L 194.0 -18.0 " stroke="#191919" stroke-width="0.35 px" style="stroke-width:0.35;stroke-miterlimit:4;stroke-dasharray:none;fill:none;fill-rule: evenodd "/>
<path id="Shape2DView001_nwe0030"  d="M 194.0 -18.0 L 206.0 -18.0 " stroke="#191919" stroke-width="0.35 px" style="stroke-width:0.35;stroke-miterlimit:4;stroke-dasharray:none;fill:none;fill-rule: evenodd "/>
<path id="Shape2DView001_nwe0031"  d="M 206.0 -18.0 L 206.0 -15.0 " stroke="#191919" stroke-width="0.35 px" style="stroke-width:0.35;stroke-miterlimit:4;stroke-dasharray:none;fill:none;fill-rule: evenodd "/>
<path id="Shape2DView001_nwe0032"  d="M 206.0 -15.0 L 194.0 -15.0 " stroke="#191919" stroke-width="0.35 px" style="stroke-width:0.35;stroke-miterlimit:4;stroke-dasharray:none;fill:none;fill-rule: evenodd "/>
<path d="M 157.76719269 -26.8017545086 L 157.76719269 -26.8017545086 " stroke="#191919" stroke-width="0.35 px" style="stroke-width:0.35;stroke-miterlimit:4;stroke-dasharray:none;fill:none"/>
<path d="M 161.459361547 -31.8835889717 L 161.459361547 -31.8835889717 " stroke="#191919" stroke-width="0.35 px" style="stroke-width:0.35;stroke-miterlimit:4;stroke-dasharray:none;fill:none"/>
<path d="M 238.540638453 -31.8835889717 L 238.540638453 -31.8835889717 " stroke="#191919" stroke-width="0.35 px" style="stroke-width:0.35;stroke-miterlimit:4;stroke-dasharray:none;fill:none"/>
<path d="M 245.258939568 -21.2972403663 L 245.258939568 -21.2972403663 " stroke="#191919" stroke-width="0.35 px" style="stroke-width:0.35;stroke-miterlimit:4;stroke-dasharray:none;fill:none"/>
<path d="M 242.23280731 -26.8017545086 L 242.23280731 -26.8017545086 " stroke="#191919" stroke-width="0.35 px" style="stroke-width:0.35;stroke-miterlimit:4;stroke-dasharray:none;fill:none"/>
<path d="M 249.92073487 3.1407464234 L 249.92073487 3.1407464234 " stroke="#191919" stroke-width="0.35 px" style="stroke-width:0.35;stroke-miterlimit:4;stroke-dasharray:none;fill:none"/>
<path d="M 229.400687281 40.4665744224 L 229.400687281 40.4665744224 " stroke="#191919" stroke-width="0.35 px" style="stroke-width:0.35;stroke-miterlimit:4;stroke-dasharray:none;fill:none"/>
<path d="M 234.240660703 36.4626001904 L 234.240660703 36.4626001904 " stroke="#191919" stroke-width="0.35 px" style="stroke-width:0.35;stroke-miterlimit:4;stroke-dasharray:none;fill:none"/>
<path d="M 242.23280731 26.8017545086 L 242.23280731 26.8017545086 " stroke="#191919" stroke-width="0.35 px" style="stroke-width:0.35;stroke-miterlimit:4;stroke-dasharray:none;fill:none"/>
<path d="M 238.540638453 31.8835889717 L 238.540638453 31.8835889717 " stroke="#191919" stroke-width="0.35 px" style="stroke-width:0.35;stroke-miterlimit:4;stroke-dasharray:none;fill:none"/>
<path d="M 245.258939568 21.2972403663 L 245.258939568 21.2972403663 " stroke="#191919" stroke-width="0.35 px" style="stroke-width:0.35;stroke-miterlimit:4;stroke-dasharray:none;fill:none"/>
<path d="M 249.13345506 9.37270782292 L 249.13345506 9.37270782292 " stroke="#191919" stroke-width="0.35 px" style="stroke-width:0.35;stroke-miterlimit:4;stroke-dasharray:none;fill:none"/>
<path d="M 247.571311313 15.4568560211 L 247.571311313 15.4568560211 " stroke="#191919" stroke-width="0.35 px" style="stroke-width:0.35;stroke-miterlimit:4;stroke-dasharray:none;fill:none"/>
<path id="Shape2DView001_nwe0046"  d="M 218.0 6.0 L 218.0 -6.0 " stroke="#191919" stroke-width="0.35 px" style="stroke-width:0.35;stroke-miterlimit:4;stroke-dasharray:none;fill:none;fill-rule: evenodd "/>
<path id="Shape2DView001_nwe0047"  d="M 215.0 6.0 L 218.0 6.0 " stroke="#191919" stroke-width="0.35 px" style="stroke-width:0.35;stroke-miterlimit:4;stroke-dasharray:none;fill:none;fill-rule: evenodd "/>
<path id="Shape2DView001_nwe0048"  d="M 215.0 -6.0 L 215.0 6.0 " stroke="#191919" stroke-width="0.35 px" style="stroke-width:0.35;stroke-miterlimit:4;stroke-dasharray:none;fill:none;fill-rule: evenodd "/>
<path id="Shape2DView001_nwe0049"  d="M 218.0 -6.0 L 215.0 -6.0 " stroke="#191919" stroke-width="0.35 px" style="stroke-width:0.35;stroke-miterlimit:4;stroke-dasharray:none;fill:none;fill-rule: evenodd "/>
<path d="M 224.097047456 43.8323666022 L 224.097047456 43.8323666022 " stroke="#191919" stroke-width="0.35 px" style="stroke-width:0.35;stroke-miterlimit:4;stroke-dasharray:none;fill:none"/>
<path d="M 218.413382799 46.5068961765 L 218.413382799 46.5068961765 " stroke="#191919" stroke-width="0.35 px" style="stroke-width:0.35;stroke-miterlimit:4;stroke-dasharray:none;fill:none"/>
<path d="M 218.413382799 -46.5068961765 L 218.413382799 -46.5068961765 " stroke="#191919" stroke-width="0.35 px" style="stroke-width:0.35;stroke-miterlimit:4;stroke-dasharray:none;fill:none"/>
<path d="M 212.439328095 -48.4479842162 L 212.439328095 -48.4479842162 " stroke="#191919" stroke-width="0.35 px" style="stroke-width:0.35;stroke-miterlimit:4;stroke-dasharray:none;fill:none"/>
<path d="M 200.0 -50.0194368027 L 200.0 -50.0194368027 " stroke="#191919" stroke-width="0.35 px" style="stroke-width:0.35;stroke-miterlimit:4;stroke-dasharray:none;fill:none"/>
<path d="M 206.269097756 -49.6250186034 L 206.269097756 -49.6250186034 " stroke="#191919" stroke-width="0.35 px" style="stroke-width:0.35;stroke-miterlimit:4;stroke-dasharray:none;fill:none"/>
<path d="M 193.730902244 -49.6250186034 L 193.730902244 -49.6250186034 " stroke="#191919" stroke-width="0.35 px" style="stroke-width:0.35;stroke-miterlimit:4;stroke-dasharray:none;fill:none"/>
<path d="M 165.759339297 -36.4626001904 L 165.759339297 -36.4626001904 " stroke="#191919" stroke-width="0.35 px" style="stroke-width:0.35;stroke-miterlimit:4;stroke-dasharray:none;fill:none"/>
<path d="M 170.599312719 -40.4665744224 L 170.599312719 -40.4665744224 " stroke="#191919" stroke-width="0.35 px" style="stroke-width:0.35;stroke-miterlimit:4;stroke-dasharray:none;fill:none"/>
<path d="M 181.586617201 -46.5068961765 L 181.586617201 -46.5068961765 " stroke="#191919" stroke-width="0.35 px" style="stroke-width:0.35;stroke-miterlimit:4;stroke-dasharray:none;fill:none"/>
<path d="M 175.902952544 -43.8323666022 L 175.902952544 -43.8323666022 " stroke="#191919" stroke-width="0.35 px" style="stroke-width:0.35;stroke-miterlimit:4;stroke-dasharray:none;fill:none"/>
<path d="M 187.560671905 -48.4479842162 L 187.560671905 -48.4479842162 " stroke="#191919" stroke-width="0.35 px" style="stroke-width:0.35;stroke-miterlimit:4;stroke-dasharray:none;fill:none"/>
<path d="M 224.097047456 -43.8323666022 L 224.097047456 -43.8323666022 " stroke="#191919" stroke-width="0.35 px" style="stroke-width:0.35;stroke-miterlimit:4;stroke-dasharray:none;fill:none"/>
<path d="M 229.400687281 -40.4665744224 L 229.400687281 -40.4665744224 " stroke="#191919" stroke-width="0.35 px" style="stroke-width:0.35;stroke-miterlimit:4;stroke-dasharray:none;fill:none"/>
<path d="M 234.240660703 -36.4626001904 L 234.240660703 -36.4626001904 " stroke="#191919" stroke-width="0.35 px" style="stroke-width:0.35;stroke-miterlimit:4;stroke-dasharray:none;fill:none"/>
<path d="M 249.92073487 -3.1407464234 L 249.92073487 -3.1407464234 " stroke="#191919" stroke-width="0.35 px" style="stroke-width:0.35;stroke-miterlimit:4;stroke-dasharray:none;fill:none"/>
<path d="M 249.13345506 -9.37270782292 L 249.13345506 -9.37270782292 " stroke="#191919" stroke-width="0.35 px" style="stroke-width:0.35;stroke-miterlimit:4;stroke-dasharray:none;fill:none"/>
<path d="M 247.571311313 -15.4568560211 L 247.571311313 -15.4568560211 " stroke="#191919" stroke-width="0.35 px" style="stroke-width:0.35;stroke-miterlimit:4;stroke-dasharray:none;fill:none"/>
<title>FlancTambour</title>
</g>
<g id="Shape2DView002" transform="translate(-92.967062,54.584485) scale(1,-1)">
<path d="M 200.0 -70.0 L 210.2606043 -71.8092213764 L 219.283628291 -77.0186667064 L 225.980762114 -85.0 L 229.54423259 -94.79055467 L 229.54423259 -105.20944533 L 225.980762114 -115.0 L 219.283628291 -122.981333294 L 210.2606043 -128.190778624 L 200.0 -130.0 L 189.7393957 -128.190778624 L 180.716371709 -122.981333294 L 174.019237886 -115.0 L 170.45576741 -105.20944533 L 170.45576741 -94.79055467 L 174.019237886 -85.0 L 180.716371709 -77.0186667064 L 189.7393957 -71.8092213764 L 200.0 -70.0 " stroke="#191919" stroke-width="0.35 px" style="stroke-width:0.35;stroke-miterlimit:4;stroke-dasharray:none;fill:none"/>
<path id="Shape2DView002_nwe0001"  d="M 215.0 -106.0 L 215.0 -94.0 " stroke="#191919" stroke-width="0.35 px" style="stroke-width:0.35;stroke-miterlimit:4;stroke-dasharray:none;fill:none;fill-rule: evenodd "/>
<path id="Shape2DView002_nwe0002"  d="M 218.0 -106.0 L 215.0 -106.0 " stroke="#191919" stroke-width="0.35 px" style="stroke-width:0.35;stroke-miterlimit:4;stroke-dasharray:none;fill:none;fill-rule: evenodd "/>
<path id="Shape2DView002_nwe0003"  d="M 218.0 -94.0 L 218.0 -106.0 " stroke="#191919" stroke-width="0.35 px" style="stroke-width:0.35;stroke-miterlimit:4;stroke-dasharray:none;fill:none;fill-rule: evenodd "/>
<path id="Shape2DView002_nwe0004"  d="M 215.0 -94.0 L 218.0 -94.0 " stroke="#191919" stroke-width="0.35 px" style="stroke-width:0.35;stroke-miterlimit:4;stroke-dasharray:none;fill:none;fill-rule: evenodd "/>
<path id="Shape2DView002_nwe0005"  d="M 206.0 -118.0 L 206.0 -115.0 " stroke="#191919" stroke-width="0.35 px" style="stroke-width:0.35;stroke-miterlimit:4;stroke-dasharray:none;fill:none;fill-rule: evenodd "/>
<path id="Shape2DView002_nwe0006"  d="M 206.0 -115.0 L 194.0 -115.0 " stroke="#191919" stroke-width="0.35 px" style="stroke-width:0.35;stroke-miterlimit:4;stroke-dasharray:none;fill:none;fill-rule: evenodd "/>
<path id="Shape2DView002_nwe0007"  d="M 194.0 -115.0 L 194.0 -118.0 " stroke="#191919" stroke-width="0.35 px" style="stroke-width:0.35;stroke-miterlimit:4;stroke-dasharray:none;fill:none;fill-rule: evenodd "/>
<path id="Shape2DView002_nwe0008"  d="M 194.0 -118.0 L 206.0 -118.0 " stroke="#191919" stroke-width="0.35 px" style="stroke-width:0.35;stroke-miterlimit:4;stroke-dasharray:none;fill:none;fill-rule: evenodd "/>
<path id="Shape2DView002_nwe0009"  d="M 197.170983681 -95.1 L 202.829016319 -95.1 " stroke="#191919" stroke-width="0.35 px" style="stroke-width:0.35;stroke-miterlimit:4;stroke-dasharray:none;fill:none;fill-rule: evenodd "/>
<path id="Shape2DView002_nwe0010"  d="M 194.341967362 -100.0 L 197.170983681 -95.1 " stroke="#191919" stroke-width="0.35 px" style="stroke-width:0.35;stroke-miterlimit:4;stroke-dasharray:none;fill:none;fill-rule: evenodd "/>
<path id="Shape2DView002_nwe0011"  d="M 202.829016319 -95.1 L 205.658032638 -100.0 " stroke="#191919" stroke-width="0.35 px" style="stroke-width:0.35;stroke-miterlimit:4;stroke-dasharray:none;fill:none;fill-rule: evenodd "/>
<path id="Shape2DView002_nwe0012"  d="M 197.170983681 -104.9 L 194.341967362 -100.0 " stroke="#191919" stroke-width="0.35 px" style="stroke-width:0.35;stroke-miterlimit:4;stroke-dasharray:none;fill:none;fill-rule: evenodd "/>
<path id="Shape2DView002_nwe0013"  d="M 205.658032638 -100.0 L 202.829016319 -104.9 " stroke="#191919" stroke-width="0.35 px" style="stroke-width:0.35;stroke-miterlimit:4;stroke-dasharray:none;fill:none;fill-rule: evenodd "/>
<path id="Shape2DView002_nwe0014"  d="M 202.829016319 -104.9 L 197.170983681 -104.9 " stroke="#191919" stroke-width="0.35 px" style="stroke-width:0.35;stroke-miterlimit:4;stroke-dasharray:none;fill:none;fill-rule: evenodd "/>
<path id="Shape2DView002_nwe0015"  d="M 206.0 -85.0 L 206.0 -82.0 " stroke="#191919" stroke-width="0.35 px" style="stroke-width:0.35;stroke-miterlimit:4;stroke-dasharray:none;fill:none;fill-rule: evenodd "/>
<path id="Shape2DView002_nwe0016"  d="M 206.0 -82.0 L 194.0 -82.0 " stroke="#191919" stroke-width="0.35 px" style="stroke-width:0.35;stroke-miterlimit:4;stroke-dasharray:none;fill:none;fill-rule: evenodd "/>
<path id="Shape2DView002_nwe0017"  d="M 194.0 -82.0 L 194.0 -85.0 " stroke="#191919" stroke-width="0.35 px" style="stroke-width:0.35;stroke-miterlimit:4;stroke-dasharray:none;fill:none;fill-rule: evenodd "/>
<path id="Shape2DView002_nwe0018"  d="M 194.0 -85.0 L 206.0 -85.0 " stroke="#191919" stroke-width="0.35 px" style="stroke-width:0.35;stroke-miterlimit:4;stroke-dasharray:none;fill:none;fill-rule: evenodd "/>
<path id="Shape2DView002_nwe0019"  d="M 182.0 -94.0 L 185.0 -94.0 " stroke="#191919" stroke-width="0.35 px" style="stroke-width:0.35;stroke-miterlimit:4;stroke-dasharray:none;fill:none;fill-rule: evenodd "/>
<path id="Shape2DView002_nwe0020"  d="M 182.0 -106.0 L 182.0 -94.0 " stroke="#191919" stroke-width="0.35 px" style="stroke-width:0.35;stroke-miterlimit:4;stroke-dasharray:none;fill:none;fill-rule: evenodd "/>
<path id="Shape2DView002_nwe0021"  d="M 185.0 -106.0 L 182.0 -106.0 " stroke="#191919" stroke-width="0.35 px" style="stroke-width:0.35;stroke-miterlimit:4;stroke-dasharray:none;fill:none;fill-rule: evenodd "/>
<path id="Shape2DView002_nwe0022"  d="M 185.0 -94.0 L 185.0 -106.0 " stroke="#191919" stroke-width="0.35 px" style="stroke-width:0.35;stroke-miterlimit:4;stroke-dasharray:none;fill:none;fill-rule: evenodd "/>
<title>EcrouCaptif</title>
</g>
<g id="Shape2DView003" transform="translate(-92.967062,54.584485) scale(1,-1)">
<path id="Shape2DView003_nwe0000"  d="M 94.5515466748 -28.0 L 94.5515466748 -122.0 " stroke="#191919" stroke-width="0.35 px" style="stroke-width:0.35;stroke-miterlimit:4;stroke-dasharray:none;fill:none;fill-rule: evenodd "/>
<path id="Shape2DView003_nwe0001"  d="M 94.5515466748 -122.0 L 97.0515466748 -122.0 " stroke="#191919" stroke-width="0.35 px" style="stroke-width:0.35;stroke-miterlimit:4;stroke-dasharray:none;fill:none;fill-rule: evenodd "/>
<path id="Shape2DView003_nwe0002"  d="M 97.0515466748 -122.0 L 97.0515466748 -115.0 " stroke="#191919" stroke-width="0.35 px" style="stroke-width:0.35;stroke-miterlimit:4;stroke-dasharray:none;fill:none;fill-rule: evenodd "/>
<path id="Shape2DView003_nwe0003"  d="M 97.0515466748 -115.0 L 154.551546675 -115.0 " stroke="#191919" stroke-width="0.35 px" style="stroke-width:0.35;stroke-miterlimit:4;stroke-dasharray:none;fill:none;fill-rule: evenodd "/>
<path id="Shape2DView003_nwe0004"  d="M 154.551546675 -115.0 L 154.551546675 -35.0 " stroke="#191919" stroke-width="0.35 px" style="stroke-width:0.35;stroke-miterlimit:4;stroke-dasharray:none;fill:none;fill-rule: evenodd "/>
<path id="Shape2DView003_nwe0005"  d="M 154.551546675 -35.0 L 97.0515466748 -35.0 " stroke="#191919" stroke-width="0.35 px" style="stroke-width:0.35;stroke-miterlimit:4;stroke-dasharray:none;fill:none;fill-rule: evenodd "/>
<path id="Shape2DView003_nwe0006"  d="M 97.0515466748 -35.0 L 97.0515466748 -28.0 " stroke="#191919" stroke-width="0.35 px" style="stroke-width:0.35;stroke-miterlimit:4;stroke-dasharray:none;fill:none;fill-rule: evenodd "/>
<path id="Shape2DView003_nwe0007"  d="M 97.0515466748 -28.0 L 94.5515466748 -28.0 " stroke="#191919" stroke-width="0.35 px" style="stroke-width:0.35;stroke-miterlimit:4;stroke-dasharray:none;fill:none;fill-rule: evenodd "/>
<title>Flap004</title>
</g>
</svg>