<?xml version="1.0" encoding="UTF-8" standalone="no"?>
<!-- Created with Inkscape (http://www.inkscape.org/) -->

<svg
   xmlns:dc="http://purl.org/dc/elements/1.1/"
   xmlns:cc="http://creativecommons.org/ns#"
   xmlns:rdf="http://www.w3.org/1999/02/22-rdf-syntax-ns#"
   xmlns:svg="http://www.w3.org/2000/svg"
   xmlns="http://www.w3.org/2000/svg"
   xmlns:sodipodi="http://sodipodi.sourceforge.net/DTD/sodipodi-0.dtd"
   xmlns:inkscape="http://www.inkscape.org/namespaces/inkscape"
   width="400mm"
   height="300mm"
   viewBox="0 0 400 300"
   version="1.1"
   id="svg16052"
   inkscape:version="0.92.1 r15371"
   sodipodi:docname="Proto4-Page1.svg">
  <defs
     id="defs16046" />
  <sodipodi:namedview
     id="base"
     pagecolor="#ffffff"
     bordercolor="#666666"
     borderopacity="1.0"
     inkscape:pageopacity="0.0"
     inkscape:pageshadow="2"
     inkscape:zoom="0.49497475"
     inkscape:cx="17.659403"
     inkscape:cy="524.49097"
     inkscape:document-units="mm"
     inkscape:current-layer="layer1"
     showgrid="false"
     inkscape:window-width="1920"
     inkscape:window-height="1129"
     inkscape:window-x="1680"
     inkscape:window-y="34"
     inkscape:window-maximized="1" />
  <metadata
     id="metadata16049">
    <rdf:RDF>
      <cc:Work
         rdf:about="">
        <dc:format>image/svg+xml</dc:format>
        <dc:type
           rdf:resource="http://purl.org/dc/dcmitype/StillImage" />
        <dc:title />
      </cc:Work>
    </rdf:RDF>
  </metadata>
  <g
     inkscape:label="Calque 1"
     inkscape:groupmode="layer"
     id="layer1"
     transform="translate(0,3)">
    <g
       transform="matrix(0.35277777,0,0,-0.35277777,-3.5577084,-36.10815)"
       id="g22"
       style="fill:none;stroke:#000000;stroke-width:0.28346458;stroke-miterlimit:4;stroke-dasharray:none;stroke-opacity:1">
      <path
         inkscape:connector-curvature="0"
         id="path24"
         style="fill:none;stroke:#000000;stroke-width:0.28346458;stroke-linecap:round;stroke-linejoin:miter;stroke-miterlimit:4;stroke-dasharray:none;stroke-opacity:1"
         d="m 223.617,-320.047 v -113.398 h 28 v 46.699 h 8.5 v 19.898 h -8.5 v 46.801 z" />
    </g>
    <g
       transform="matrix(-0.35277777,0,0,0.35277777,-171.34761,217.38068)"
       id="g38"
       style="fill:none;stroke:#000000;stroke-width:0.28346458;stroke-miterlimit:4;stroke-dasharray:none;stroke-opacity:1">
      <path
         inkscape:connector-curvature="0"
         id="path40"
         style="fill:none;stroke:#000000;stroke-width:0.28346458;stroke-linecap:round;stroke-linejoin:miter;stroke-miterlimit:4;stroke-dasharray:none;stroke-opacity:1"
         d="m -767.242,-32.715 6e-5,8.498767 25.49994,0.0012 v -31.199 h -8.5 v -34 h 8.5 v -33.999997 h -8.5 v -34 h 8.5 v -34.102 h -8.5 v -56.687 h 8.5 v -34 h -8.5 v -34 h 8.5 v -34 h -8.5 v -34 h 8.5 v -31.203 h -25.5 v 8.5 h -22.66294 v -8.49983 h -22.69685 v 391.189594 h 22.69685 V -32.715 Z"
         sodipodi:nodetypes="ccccccccccccccccccccccccccccccccc" />
    </g>
    <g
       id="g1069"
       transform="matrix(0.35277777,0,0,-0.35277777,-33.849678,206.6555)"
       style="fill:none;stroke:#000000;stroke-opacity:1;stroke-width:0.28346458;stroke-miterlimit:4;stroke-dasharray:none">
      <g
         style="fill:none;stroke:#000000;stroke-width:0.28346458;stroke-miterlimit:4;stroke-dasharray:none;stroke-opacity:1"
         id="g42"
         transform="translate(0,849.99994)">
        <path
           sodipodi:nodetypes="cccccccccsssscc"
           d="m 281.484,-481.898 v 8.5 h -25 v -8.5 h -25.402 v 8.5 h -24.898 v -8.5 h -19.102 v -91.71864 c 0,-7.199 5.801,-13.101 13,-13.101 h 87.402 c 7.2,0 13,5.902 13,13.101 v 91.71864 z"
           style="fill:none;stroke:#000000;stroke-width:0.28346458;stroke-linecap:round;stroke-linejoin:miter;stroke-miterlimit:4;stroke-dasharray:none;stroke-opacity:1"
           id="path44"
           inkscape:connector-curvature="0" />
      </g>
      <g
         style="fill:none;stroke:#000000;stroke-width:0.28348486;stroke-miterlimit:4;stroke-dasharray:none;stroke-opacity:1"
         id="g46"
         transform="matrix(1.0000031,0,0,0.99985378,-7.608075e-4,807.40392)">
        <path
           d="m 243.785,-513.898 c 2.399,0 4.297,-1.899 4.297,-4.301 0,-2.399 -1.898,-4.399 -4.297,-4.399 -2.402,0 -4.301,2 -4.301,4.399 0,2.402 1.899,4.301 4.301,4.301 z"
           style="fill:none;stroke:#000000;stroke-width:0.28348486;stroke-linecap:round;stroke-linejoin:miter;stroke-miterlimit:4;stroke-dasharray:none;stroke-opacity:1"
           id="path48"
           inkscape:connector-curvature="0" />
      </g>
    </g>
    <g
       id="g1063"
       transform="matrix(-0.35277777,0,0,-0.35277777,125.33555,310.3707)"
       style="fill:none;stroke:#000000;stroke-opacity:1;stroke-width:0.28346458;stroke-miterlimit:4;stroke-dasharray:none">
      <path
         d="m -510.83108,460.90335 h -25.2 v -8.49999 h 25.4 v 8.49999"
         style="fill:none;stroke:#000000;stroke-width:0.28346458;stroke-linecap:round;stroke-linejoin:miter;stroke-miterlimit:4;stroke-dasharray:none;stroke-opacity:1"
         id="path942"
         inkscape:connector-curvature="0" />
      <path
         d="m -466.63108,460.90335 h -19 v -8.49999 h 19 z"
         style="fill:none;stroke:#000000;stroke-width:0.28346458;stroke-linecap:round;stroke-linejoin:miter;stroke-miterlimit:4;stroke-dasharray:none;stroke-opacity:1"
         id="path946"
         inkscape:connector-curvature="0" />
      <path
         d="m -560.9311,460.90335 h -19.2 v -8.49999 h 19.2 z"
         style="fill:none;stroke:#000000;stroke-width:0.28346458;stroke-linecap:round;stroke-linejoin:miter;stroke-miterlimit:4;stroke-dasharray:none;stroke-opacity:1"
         id="path950"
         inkscape:connector-curvature="0" />
      <path
         d="m -523.33108,377.88403 c 2.3,0 4.3,-1.89999 4.3,-4.29999 0,-2.4 -2,-4.3 -4.3,-4.3 -2.4,0 -4.4,1.9 -4.4,4.3 0,2.4 2,4.29999 4.4,4.29999 z"
         style="fill:none;stroke:#000000;stroke-width:0.28346458;stroke-linecap:round;stroke-linejoin:miter;stroke-miterlimit:4;stroke-dasharray:none;stroke-opacity:1"
         id="path954"
         inkscape:connector-curvature="0" />
      <path
         d="m -591.2311,163.40334 h 34 v 8.50005 h 34.00002 v -8.50005 h 34 v 8.50005 h 34 v -8.50005 h 33.99997 v 8.50005 h 34.00005 v -8.50005 h 33.99998 v 8.50005 h 33.99997 v -8.50005 h 34.00005 v 8.50005 h 33.99998 v -8.50005 h 33.99997 v 8.50005 h 34.00005 v -8.50005 h 33.99998 v 8.50005 h 34 v -8.50005 h 33.999997 v 25.50001 h 8.5 v 34.00001 h -8.5 v 34 h 8.5 v 34 33.99999 34.00001 h -8.5 v 34 h 8.5 v 34 h -8.5 v 33.99999 h 8.5 v 34 h -8.5 v 34.00001 h 8.5 v 34 h -8.5 v 34 h 8.5 v 33.99999 h -8.5 v 34.00001 h 8.5 v 34 h -8.5 v 34 h 8.5 v 33.99999 h -8.5 v 34 h 8.5 v 34.00001 h -8.5 v 25.5 h -0.2 -33.999997 v -8.50001 h -34 v 8.50001 h -34 v -8.50001 h -33.99998 v 8.50001 h -34.00005 v -8.50001 h -33.99997 v 8.50001 h -33.99998 v -8.50001 h -34.00005 v 8.50001 h -33.99998 v -8.50001 h -33.99997 v 8.50001 h -34.00002 v -8.50001 h -34 v 8.50001 h -34 v -8.50001 h -34.00002 v 8.50001 h -34 v -25.5 h -8.50002 v -34.00001 h 8.50002 v -34 h -8.50002 v -33.99999 h 8.70002 v -182.4 h 334.20004 c 2.79998,6.7 9.39998,11.4 17.1,11.4 10.29998,0 18.69998,-8.3 18.69998,-18.6 0,-10.30001 -8.4,-18.70001 -18.69998,-18.70001 -7.70002,0 -14.30002,4.70001 -17.1,11.50001 H -591.2311 l -10e-5,-324.54192 h -8.49992 v -22.65809 h 8.49992 l 10e-5,-25.50001"
         style="fill:none;stroke:#000000;stroke-width:0.28346458;stroke-linecap:butt;stroke-linejoin:miter;stroke-miterlimit:4;stroke-dasharray:none;stroke-opacity:1"
         id="path958"
         inkscape:connector-curvature="0"
         sodipodi:nodetypes="cccccccccccccccccccccccccccccccccccccccccccccccccccccccccccccccccccccccccccccccccccccccccccccccccccccccccccccsssccccccc" />
    </g>
    <g
       id="g1052"
       transform="matrix(0.35277777,0,0,-0.35277777,-297.47775,330.94258)"
       style="fill:none;stroke:#000000;stroke-width:0.28346458;stroke-miterlimit:4;stroke-dasharray:none;stroke-opacity:1">
      <g
         style="fill:none;stroke:#000000;stroke-width:0.28346458;stroke-miterlimit:4;stroke-dasharray:none;stroke-opacity:1"
         id="g14"
         transform="translate(0,849.99994)">
        <path
           sodipodi:nodetypes="sssssssss"
           d="m 354.94135,-589.984 c 0,-6.598 -5.402,-12.098 -12,-12.098 H 94.242 c -6.597,0 -12,5.5 -12,12.098 v 372.839 c 0,6.602 5.403,12 12,12 h 248.69935 c 6.598,0 12,-5.398 12,-12 z"
           style="fill:none;stroke:#000000;stroke-width:0.28346458;stroke-linecap:butt;stroke-linejoin:miter;stroke-miterlimit:4;stroke-dasharray:none;stroke-opacity:1"
           id="path16"
           inkscape:connector-curvature="0" />
      </g>
      <g
         style="fill:none;stroke:#000000;stroke-width:0.28346458;stroke-miterlimit:4;stroke-dasharray:none;stroke-opacity:1"
         id="g18"
         transform="translate(0,849.99994)">
        <path
           d="m 24.113,-26.742 v -25.5 h 8.5 v -34 h -8.5 v -34 -34 -34 h 8.5 v -34 h -8.5 v -34 h 8.5 v -34 h -8.5 v -34 h 8.5 v -34 h -8.5 v -34 h 8.5 v -34 h -8.5 v -34 h 8.5 v -34 h -8.5 v -34 h 8.5 v -34 h -8.5 v -34 h 8.5 v -34 h -8.5 v -34 h 8.5 v -34 h -8.5 v -25.5 h 31.199 v 8.5 h 34 34 34 v -8.5 h 34 v 8.5 h 56.891 v -8.5 h 33.902 v 8.5 h 34.098 v -8.5 h 33.902 v 8.5 h 34.098 v -8.5 h 31.102 v 25.5 h -8.5 v 34 h 8.5 v 34 h -8.5 v 34 34 34 h 8.5 v 34 h -8.5 v 34 h 8.5 v 34 h -8.5 v 34 h 8.5 v 34 h -8.5 v 34 h 8.5 v 34 h -8.5 v 34 h 8.5 v 34 h -8.5 v 34 h 8.5 v 34 h -8.5 v 34 h 8.5 v 34 h -8.5 v 34 h 8.5 v 25.5 h -31.102 v -8.5 h -34.098 v 8.5 h -33.902 v -8.5 h -34.098 v 8.5 h -33.902 v -8.5 h -56.789 v 8.5 h -34 v -8.5 h -34 v 8.5 H 89.312 v -8.5 h -34 v 8.5 H 24.113"
           style="fill:none;stroke:#000000;stroke-width:0.28346458;stroke-linecap:round;stroke-linejoin:miter;stroke-miterlimit:4;stroke-dasharray:none;stroke-opacity:1"
           id="path20"
           inkscape:connector-curvature="0"
           sodipodi:nodetypes="ccccccccccccccccccccccccccccccccccccccccccccccccccccccccccccccccccccccccccccccccccccccccccccccccccccccccccccccccccccccc" />
      </g>
    </g>
    <g
       transform="matrix(0,0.35277777,0.35277777,0,528.34828,156.5326)"
       id="g16235"
       style="fill:none;stroke:#000000;stroke-opacity:1;stroke-width:0.28346458;stroke-miterlimit:4;stroke-dasharray:none">
      <g
         transform="rotate(-90,180.30497,-465.81059)"
         id="g1105"
         style="fill:none;stroke:#000000;stroke-opacity:1;stroke-width:0.28346458;stroke-miterlimit:4;stroke-dasharray:none">
        <g
           transform="rotate(90,-513.49997,-350.50006)"
           id="g50"
           style="fill:none;stroke:#000000;stroke-width:0.28346458;stroke-miterlimit:4;stroke-dasharray:none;stroke-opacity:1" />
        <g
           transform="rotate(90,-513.49997,-350.50006)"
           id="g54"
           style="fill:none;stroke:#000000;stroke-width:0.28346458;stroke-miterlimit:4;stroke-dasharray:none;stroke-opacity:1">
          <path
             inkscape:connector-curvature="0"
             id="path56"
             style="fill:none;stroke:#000000;stroke-width:0.28346458;stroke-linecap:round;stroke-linejoin:miter;stroke-miterlimit:4;stroke-dasharray:none;stroke-opacity:1"
             d="m -450.363,-1054.254 h 8.5 v 19.899 h -8.5 z" />
        </g>
      </g>
      <path
         sodipodi:nodetypes="cccccccccccccccccccccc"
         inkscape:connector-curvature="0"
         id="rect1107"
         d="m 310.75858,-409.06058 -16.63498,-36.8504 H 58.847991 l -17.380761,36.8504 -56.80876,-10e-6 v -19 h 17.102 v -24.902 h -17.102 v -25.398 h 17.102 v -25 h -17.102 v -19.2 h 382.793 v 19 11.5 h 8.5 v 56.801 h -8.5 v 26.199 z"
         style="fill:none;stroke:#000000;stroke-width:0.28346458;stroke-miterlimit:4;stroke-dasharray:none;stroke-opacity:1" />
      <circle
         r="4.2519684"
         transform="scale(1,-1)"
         cy="509.80536"
         cx="345.99686"
         id="path1128"
         style="fill:none;stroke:#000000;stroke-width:0.28346458;stroke-miterlimit:4;stroke-dasharray:none;stroke-opacity:1" />
      <circle
         transform="scale(1,-1)"
         r="4.2519684"
         cy="509.79401"
         cx="14.516221"
         id="path1128-6"
         style="fill:none;stroke:#000000;stroke-width:0.28346458;stroke-miterlimit:4;stroke-dasharray:none;stroke-opacity:1" />
    </g>
    <g
       id="g879"
       transform="matrix(0,-0.35277777,-0.35277777,0,590.27133,650.03637)"
       style="fill:none;stroke:#000000;stroke-width:0.28346458;stroke-miterlimit:4;stroke-dasharray:none;stroke-opacity:1">
      <g
         id="g34-3"
         transform="translate(1398.9179,-406.90249)"
         style="fill:none;stroke:#000000;stroke-width:0.28346458;stroke-miterlimit:4;stroke-dasharray:none;stroke-opacity:1">
        <path
           d="m 254.328,1101.395 v 8.5 h 34 v -8.5 h 34 v 8.5 h 34 v -8.5 h 34 v 8.5 h 31.199 v -25.403 h -8.5 v -34.097 h 8.5 v -34 h -8.5 v -34 H 38.832 v 34 h -8.5 v 34 h 8.5 v 34.097 h -8.5 v 25.403 h 31.203 v -8.5 h 34 v 8.5 h 34 v -8.5 h 34 v 8.5 h 34 v -8.5 z"
           style="fill:none;stroke:#000000;stroke-width:0.28346458;stroke-linecap:round;stroke-linejoin:miter;stroke-miterlimit:4;stroke-dasharray:none;stroke-opacity:1"
           id="path36-5"
           inkscape:connector-curvature="0" />
      </g>
      <path
         id="path198"
         transform="matrix(0.75000002,0,0,-0.75000002,0,850)"
         d="m 2033.918,248.29688 a 11.716536,11.716536 0 0 0 -11.7149,11.71484 11.716536,11.716536 0 0 0 0,0.002 V 288.25 a 28.72441,28.72441 0 0 0 -17.0097,26.1875 28.72441,28.72441 0 0 0 28.7246,28.72461 28.72441,28.72441 0 0 0 28.7246,-28.72461 28.72441,28.72441 0 0 0 -17.0078,-26.20117 v -28.22266 a 11.716536,11.716536 0 0 0 0,-0.002 11.716536,11.716536 0 0 0 -11.7168,-11.71484 z"
         style="fill:none;stroke:#000000;stroke-width:0.37795276;stroke-miterlimit:4;stroke-dasharray:none;stroke-opacity:1"
         inkscape:connector-curvature="0" />
      <path
         id="path198-9"
         d="m 1724.0687,663.58987 a 8.7874022,8.7874022 0 0 0 8.7862,-8.78612 8.7874022,8.7874022 0 0 0 0,-0.001 v -21.17771 a 21.543308,21.543308 0 0 0 12.7573,-19.64063 21.543308,21.543308 0 0 0 -21.5435,-21.54346 21.543308,21.543308 0 0 0 -21.5434,21.54346 21.543308,21.543308 0 0 0 12.7558,19.65088 v 21.167 a 8.7874022,8.7874022 0 0 0 0,10e-4 8.7874022,8.7874022 0 0 0 8.7876,8.78613 z"
         style="fill:none;stroke:#000000;stroke-width:0.28346458;stroke-miterlimit:4;stroke-dasharray:none;stroke-opacity:1"
         inkscape:connector-curvature="0" />
    </g>
  </g>
</svg>
