<?xml version="1.0" encoding="UTF-8" standalone="no"?>
<!-- Created with Inkscape (http://www.inkscape.org/) -->

<svg
   xmlns:dc="http://purl.org/dc/elements/1.1/"
   xmlns:cc="http://creativecommons.org/ns#"
   xmlns:rdf="http://www.w3.org/1999/02/22-rdf-syntax-ns#"
   xmlns:svg="http://www.w3.org/2000/svg"
   xmlns="http://www.w3.org/2000/svg"
   xmlns:sodipodi="http://sodipodi.sourceforge.net/DTD/sodipodi-0.dtd"
   xmlns:inkscape="http://www.inkscape.org/namespaces/inkscape"
   width="177.16534"
   height="177.16534"
   id="svg2"
   version="1.1"
   inkscape:version="0.48.3.1 r9886"
   sodipodi:docname="Elastic-Clip.svg">
  <sodipodi:namedview
     id="base"
     pagecolor="#ffffff"
     bordercolor="#666666"
     borderopacity="1.0"
     inkscape:pageopacity="0.0"
     inkscape:pageshadow="2"
     inkscape:zoom="3.4826224"
     inkscape:cx="111.55387"
     inkscape:cy="88.582672"
     inkscape:document-units="px"
     inkscape:current-layer="layer2"
     showgrid="true"
     units="cm"
     inkscape:window-width="1280"
     inkscape:window-height="776"
     inkscape:window-x="0"
     inkscape:window-y="24"
     inkscape:window-maximized="1"
     showguides="false"
     inkscape:guide-bbox="true"
     inkscape:snap-to-guides="true"
     inkscape:object-nodes="true"
     inkscape:snap-global="true"
     inkscape:snap-nodes="true"
     guidetolerance="20"
     inkscape:snap-grids="true"
     inkscape:snap-smooth-nodes="true">
    <inkscape:grid
       type="xygrid"
       id="grid2985"
       empspacing="5"
       visible="true"
       enabled="true"
       snapvisiblegridlinesonly="true"
       units="mm"
       spacingx="1mm"
       spacingy="1mm" />
    <sodipodi:guide
       orientation="0,1"
       position="499.6063,931.88976"
       id="guide6872" />
    <sodipodi:guide
       orientation="0,1"
       position="400.3937,921.25984"
       id="guide6874" />
    <sodipodi:guide
       orientation="0,1"
       position="329.52756,797.24409"
       id="guide6876" />
    <sodipodi:guide
       orientation="0,1"
       position="333.07087,786.61417"
       id="guide6878" />
    <sodipodi:guide
       orientation="0,1"
       position="333.07087,531.49606"
       id="guide6880" />
    <sodipodi:guide
       orientation="0,1"
       position="343.70079,517.32283"
       id="guide6882" />
    <sodipodi:guide
       orientation="0,1"
       position="379.13386,290.55118"
       id="guide6884" />
    <sodipodi:guide
       orientation="0,1"
       position="279.92126,276.37795"
       id="guide6886" />
    <sodipodi:guide
       orientation="1,0"
       position="301.1811,198.4252"
       id="guide6888" />
    <sodipodi:guide
       orientation="1,0"
       position="95.669291,198.4252"
       id="guide6890" />
    <sodipodi:guide
       orientation="1,0"
       position="467.71654,233.85827"
       id="guide6892" />
    <sodipodi:guide
       orientation="1,0"
       position="673.22835,233.85827"
       id="guide6894" />
    <sodipodi:guide
       orientation="0,1"
       position="655.51181,758.26772"
       id="guide6896" />
    <sodipodi:guide
       orientation="1,0"
       position="754.72441,775.98425"
       id="guide6898" />
    <sodipodi:guide
       orientation="1,0"
       position="418.11024,779.52756"
       id="guide6900" />
    <sodipodi:guide
       orientation="1,0"
       position="382.67717,775.98425"
       id="guide6902" />
    <sodipodi:guide
       orientation="1,0"
       position="46.062992,779.52756"
       id="guide6904" />
    <sodipodi:guide
       orientation="0,1"
       position="457.08661,258.66142"
       id="guide7535" />
    <sodipodi:guide
       orientation="0,1"
       position="474.80315,198.4252"
       id="guide7537" />
    <sodipodi:guide
       orientation="0,1"
       position="453.54331,131.10236"
       id="guide7539" />
    <sodipodi:guide
       orientation="0,1"
       position="453.54331,70.866142"
       id="guide7541" />
    <sodipodi:guide
       orientation="0,1"
       position="721.27575,312.02376"
       id="guide9670" />
  </sodipodi:namedview>
  <defs
     id="defs4">
    <inkscape:path-effect
       is_visible="true"
       id="path-effect3469"
       effect="spiro" />
    <inkscape:path-effect
       effect="spiro"
       id="path-effect3467"
       is_visible="true" />
    <inkscape:path-effect
       is_visible="true"
       id="path-effect3186"
       effect="spiro" />
    <inkscape:path-effect
       is_visible="true"
       id="path-effect4602"
       effect="spiro" />
    <inkscape:path-effect
       effect="spiro"
       id="path-effect4600"
       is_visible="true" />
    <inkscape:path-effect
       effect="spiro"
       id="path-effect4598"
       is_visible="true" />
    <inkscape:path-effect
       is_visible="true"
       id="path-effect4596"
       effect="spiro" />
    <inkscape:path-effect
       effect="spiro"
       id="path-effect4594"
       is_visible="true" />
    <inkscape:path-effect
       effect="spiro"
       id="path-effect4592"
       is_visible="true" />
    <inkscape:path-effect
       is_visible="true"
       id="path-effect4590"
       effect="spiro" />
    <inkscape:path-effect
       is_visible="true"
       id="path-effect4588"
       effect="spiro" />
    <inkscape:path-effect
       is_visible="true"
       id="path-effect4586"
       effect="spiro" />
    <inkscape:path-effect
       is_visible="true"
       id="path-effect4584"
       effect="spiro" />
    <inkscape:path-effect
       effect="spiro"
       id="path-effect4582"
       is_visible="true" />
    <inkscape:path-effect
       effect="spiro"
       id="path-effect4580"
       is_visible="true" />
    <inkscape:path-effect
       is_visible="true"
       id="path-effect4578"
       effect="spiro" />
    <inkscape:path-effect
       effect="spiro"
       id="path-effect4576"
       is_visible="true" />
    <inkscape:path-effect
       is_visible="true"
       id="path-effect3393"
       effect="spiro" />
    <inkscape:path-effect
       effect="spiro"
       id="path-effect3391"
       is_visible="true" />
    <inkscape:path-effect
       effect="spiro"
       id="path-effect3389"
       is_visible="true" />
    <inkscape:path-effect
       is_visible="true"
       id="path-effect3387"
       effect="spiro" />
    <inkscape:path-effect
       effect="spiro"
       id="path-effect3385"
       is_visible="true" />
    <inkscape:path-effect
       effect="spiro"
       id="path-effect3383"
       is_visible="true" />
    <inkscape:path-effect
       is_visible="true"
       id="path-effect3381"
       effect="spiro" />
    <inkscape:path-effect
       is_visible="true"
       id="path-effect3379"
       effect="spiro" />
    <inkscape:path-effect
       is_visible="true"
       id="path-effect3377"
       effect="spiro" />
    <inkscape:path-effect
       is_visible="true"
       id="path-effect3375"
       effect="spiro" />
    <inkscape:path-effect
       effect="spiro"
       id="path-effect3373"
       is_visible="true" />
    <inkscape:path-effect
       effect="spiro"
       id="path-effect3371"
       is_visible="true" />
    <inkscape:path-effect
       is_visible="true"
       id="path-effect3369"
       effect="spiro" />
    <inkscape:path-effect
       effect="spiro"
       id="path-effect3367"
       is_visible="true" />
    <inkscape:path-effect
       effect="spiro"
       id="path-effect3362"
       is_visible="true" />
    <inkscape:path-effect
       is_visible="true"
       id="path-effect3360"
       effect="spiro" />
    <inkscape:path-effect
       effect="spiro"
       id="path-effect3326"
       is_visible="true" />
    <inkscape:path-effect
       effect="spiro"
       id="path-effect3323"
       is_visible="true" />
    <inkscape:path-effect
       effect="spiro"
       id="path-effect3320"
       is_visible="true" />
    <inkscape:path-effect
       is_visible="true"
       id="path-effect3317"
       effect="spiro" />
    <inkscape:path-effect
       is_visible="true"
       id="path-effect3314"
       effect="spiro" />
    <inkscape:path-effect
       effect="spiro"
       id="path-effect3178"
       is_visible="true" />
    <inkscape:path-effect
       effect="spiro"
       id="path-effect3172"
       is_visible="true" />
    <inkscape:path-effect
       is_visible="true"
       id="path-effect3168"
       effect="spiro" />
    <inkscape:path-effect
       effect="spiro"
       id="path-effect3162"
       is_visible="true" />
    <inkscape:path-effect
       effect="spiro"
       id="path-effect3158"
       is_visible="true" />
    <inkscape:path-effect
       effect="spiro"
       id="path-effect3151"
       is_visible="true" />
    <inkscape:path-effect
       is_visible="true"
       id="path-effect3147"
       effect="spiro" />
    <inkscape:path-effect
       effect="spiro"
       id="path-effect3143"
       is_visible="true" />
    <inkscape:path-effect
       effect="spiro"
       id="path-effect3082"
       is_visible="true" />
    <inkscape:path-effect
       effect="spiro"
       id="path-effect3078"
       is_visible="true" />
    <inkscape:path-effect
       effect="spiro"
       id="path-effect3076"
       is_visible="true" />
    <inkscape:path-effect
       is_visible="true"
       id="path-effect3070"
       effect="spiro" />
    <inkscape:path-effect
       is_visible="true"
       id="path-effect3068"
       effect="spiro" />
    <inkscape:path-effect
       is_visible="true"
       id="path-effect3029"
       effect="spiro" />
    <inkscape:path-effect
       effect="spiro"
       id="path-effect3025"
       is_visible="true" />
    <inkscape:path-effect
       effect="spiro"
       id="path-effect3021"
       is_visible="true" />
    <inkscape:path-effect
       is_visible="true"
       id="path-effect3017"
       effect="spiro" />
    <inkscape:path-effect
       effect="spiro"
       id="path-effect3013"
       is_visible="true" />
    <inkscape:path-effect
       effect="spiro"
       id="path-effect3007"
       is_visible="true" />
    <inkscape:path-effect
       is_visible="true"
       id="path-effect3003"
       effect="spiro" />
    <inkscape:path-effect
       effect="spiro"
       id="path-effect2999"
       is_visible="true" />
    <inkscape:path-effect
       effect="spiro"
       id="path-effect2995"
       is_visible="true" />
  </defs>
  <metadata
     id="metadata7">
    <rdf:RDF>
      <cc:Work
         rdf:about="">
        <dc:format>image/svg+xml</dc:format>
        <dc:type
           rdf:resource="http://purl.org/dc/dcmitype/StillImage" />
        <dc:title></dc:title>
      </cc:Work>
    </rdf:RDF>
  </metadata>
  <g
     inkscape:label="Layer 1"
     inkscape:groupmode="layer"
     id="layer1"
     transform="translate(0,-875.19543)"
     style="display:none">
    <rect
       style="fill:#004455;fill-opacity:1;stroke:none;display:inline"
       id="rect2987"
       width="315.35434"
       height="81.496063"
       x="92.125984"
       y="651.96716" />
    <rect
       style="fill:#004455;fill-opacity:1;stroke:none;display:inline"
       id="rect2989"
       width="315.35434"
       height="205.51181"
       x="92.125984"
       y="403.93564" />
    <rect
       style="fill:#004455;fill-opacity:1;stroke:none;display:inline"
       id="rect2991"
       width="205.51181"
       height="81.496063"
       x="460.62991"
       y="651.96716" />
    <rect
       y="775.98291"
       x="92.125984"
       height="205.51181"
       width="315.35434"
       id="rect3227"
       style="fill:#004455;fill-opacity:1;stroke:none;display:inline" />
    <rect
       y="804.32935"
       x="460.62991"
       height="81.496063"
       width="205.51183"
       id="rect3203"
       style="fill:#004455;fill-opacity:1;stroke:none;display:inline" />
    <rect
       y="272.83328"
       x="92.125984"
       height="81.496063"
       width="315.35434"
       id="rect3350"
       style="fill:#004455;fill-opacity:1;stroke:none;display:inline" />
  </g>
  <g
     transform="translate(0,-885.82666)"
     inkscape:groupmode="layer"
     id="layer4"
     inkscape:label="Cut 3"
     style="display:none" />
  <g
     transform="translate(0,-885.82666)"
     inkscape:groupmode="layer"
     id="layer2"
     inkscape:label="Cut 2"
     style="display:inline">
    <path
       sodipodi:nodetypes="ccccccccccc"
       style="fill:none;stroke:#ff0000;stroke-width:0.5;stroke-linecap:butt;stroke-linejoin:miter;stroke-miterlimit:4;stroke-opacity:1;stroke-dasharray:none;display:inline"
       d="m 124.01575,1027.559 1e-5,-35.43314 10.62992,0 -1e-5,-21.25984 -88.582678,0 88.582668,-7.08661 7.08662,-3.54331 0,-7.08661 -7.0866,-3.54331 0,7.08661 -106.299218,0"
       id="path3164"
       inkscape:connector-curvature="0" />
    <path
       style="fill:none;stroke:#000000;stroke-width:1px;stroke-linecap:butt;stroke-linejoin:miter;stroke-opacity:1"
       d="m 124.01575,956.69279 0,-35.43307"
       id="path3516"
       inkscape:connector-curvature="0" />
  </g>
  <g
     transform="translate(0,-885.82666)"
     inkscape:groupmode="layer"
     id="layer3"
     inkscape:label="Cut 1"
     style="display:inline" />
  <g
     transform="translate(0,-885.82666)"
     inkscape:groupmode="layer"
     id="layer5"
     inkscape:label="Engrave 1"
     style="display:inline" />
</svg>
