<?xml version="1.0"?>
<!DOCTYPE svg PUBLIC "-//W3C//DTD SVG 1.1//EN" "http://www.w3.org/Graphics/SVG/1.1/DTD/svg11.dtd">
<svg width="495.031724943mm" height="408.031724943mm" viewBox="0 0 495.031724943 408.031724943" xmlns="http://www.w3.org/2000/svg" version="1.1">
<g id="Sketch002" transform="translate(252.015862,163.015862) scale(1,-1)">
<path id="Sketch002_w0000"  d="M 61.0 158.162610266 L 61.0 145.081305133 L 61.8 145.081305133 L 61.8 146.081305133 L 83.0 146.081305133 L 83.0 14.0 L 238.162610266 14.0 L 238.162610266 -96.0 L 83.0 -96.0 L 83.0 -228.081305133 L 61.8 -228.081305133 L 61.8 -227.081305133 L 61.0 -227.081305133 L 61.0 -240.162610266 L -52.0 -240.162610266 L -52.0 -227.081305133 L -52.8 -227.081305133 L -52.8 -228.081305133 L -83.0 -228.081305133 L -83.0 -96.0 L -247.162610266 -96.0 L -247.162610266 14.0 L -83.0 14.0 L -83.0 146.081305133 L -52.8 146.081305133 L -52.8 145.081305133 L -52.0 145.081305133 L -52.0 158.162610266 L 61.0 158.162610266 " stroke="#000080" stroke-width="0.35 px" style="stroke-width:0.35;stroke-miterlimit:4;stroke-dasharray:none;fill:none;fill-rule: evenodd "/>
<path id="Sketch002_w0001"  d="M -52.0 147.1219577 L 61.0 147.1219577 " stroke="#000080" stroke-width="0.35 px" style="stroke-width:0.35;stroke-miterlimit:4;stroke-dasharray:none;fill:none;fill-rule: evenodd "/>
<path id="Sketch002_w0002"  d="M -83.0 15.0406525665 L 83.0 15.0406525665 " stroke="#000080" stroke-width="0.35 px" style="stroke-width:0.35;stroke-miterlimit:4;stroke-dasharray:none;fill:none;fill-rule: evenodd "/>
<path id="Sketch002_w0003"  d="M 216.1219577 14.0 L 216.1219577 -96.0 " stroke="#000080" stroke-width="0.35 px" style="stroke-width:0.35;stroke-miterlimit:4;stroke-dasharray:none;fill:none;fill-rule: evenodd "/>
<path id="Sketch002_w0004"  d="M 84.0406525665 14.0 L 84.0406525665 -96.0 " stroke="#000080" stroke-width="0.35 px" style="stroke-width:0.35;stroke-miterlimit:4;stroke-dasharray:none;fill:none;fill-rule: evenodd "/>
<path id="Sketch002_w0005"  d="M -52.0 -229.1219577 L 61.0 -229.1219577 " stroke="#000080" stroke-width="0.35 px" style="stroke-width:0.35;stroke-miterlimit:4;stroke-dasharray:none;fill:none;fill-rule: evenodd "/>
<path id="Sketch002_w0006"  d="M -83.0 -97.0406525665 L 83.0 -97.0406525665 " stroke="#000080" stroke-width="0.35 px" style="stroke-width:0.35;stroke-miterlimit:4;stroke-dasharray:none;fill:none;fill-rule: evenodd "/>
<path id="Sketch002_w0007"  d="M -216.1219577 14.0 L -216.1219577 -96.0 " stroke="#000080" stroke-width="0.35 px" style="stroke-width:0.35;stroke-miterlimit:4;stroke-dasharray:none;fill:none;fill-rule: evenodd "/>
<path id="Sketch002_w0008"  d="M -84.0406525665 14.0 L -84.0406525665 -96.0 " stroke="#000080" stroke-width="0.35 px" style="stroke-width:0.35;stroke-miterlimit:4;stroke-dasharray:none;fill:none;fill-rule: evenodd "/>
<title>Unfold_Sketch</title>
</g>
</svg>